Division,WeightClassKg,Place,Name,Team,BodyweightKg,Best3SquatKg,Best3BenchKg,Best3DeadliftKg,TotalKg,Equipment,Event,Sex,BirthDate
Boys,51.71,1,Chase Stansbury,Vidor,51.71,142.88,88.45,147.42,378.75,Single-ply,SBD,M,
Boys,51.71,2,Logan Williams,Nederland,51.07,145.15,74.84,147.42,367.41,Single-ply,SBD,M,
Boys,51.71,DQ,Weston Brooks,Sour Lake Hardin-Jefferson,51.71,,,,,Single-ply,SBD,M,
Boys,55.79,1,Westin Sepulvado,Vidor,55.34,158.76,97.52,167.83,424.11,Single-ply,SBD,M,
Boys,55.79,2,Gavin Talina,Lumberton,54.43,97.52,54.43,106.59,258.55,Single-ply,SBD,M,
Boys,59.87,1,Mason Harvill,Sour Lake Hardin-Jefferson,59.69,163.29,79.38,156.49,399.16,Single-ply,SBD,M,
Boys,67.13,1,Diego Torres,Nederland,67.13,197.31,111.13,226.8,535.24,Single-ply,SBD,M,
Boys,67.13,2,Stephen Lopez,Lumberton,66.77,172.37,108.86,179.17,460.4,Single-ply,SBD,M,
Boys,67.13,3,Brayden Martel,Sour Lake Hardin-Jefferson,67.04,154.22,83.91,170.1,408.23,Single-ply,SBD,M,
Boys,67.13,4,Karsen Brewer,Nederland,65.68,147.42,88.45,163.29,399.16,Single-ply,SBD,M,
Boys,67.13,5,Caleb Cheshire,Sour Lake Hardin-Jefferson,65.23,131.54,70.31,149.69,351.53,Single-ply,SBD,M,
Boys,67.13,6,Anthony Collins,Nederland,65.95,115.67,74.84,122.47,312.98,Single-ply,SBD,M,
Boys,67.13,DQ,Conner Gay,Sour Lake Hardin-Jefferson,60.33,124.74,,,,Single-ply,SBD,M,
Boys,74.84,1,Devin Peterson,Vidor,74.84,208.65,136.08,201.85,546.58,Single-ply,SBD,M,
Boys,74.84,2,Jacob Humble,Lumberton,73.03,204.12,102.06,215.46,521.63,Single-ply,SBD,M,
Boys,74.84,3,Sebastian Goodman,Lumberton,73.03,204.12,108.86,188.24,501.22,Single-ply,SBD,M,
Boys,74.84,4,Jaedon Woodard,Vidor,74.66,181.44,111.13,183.7,476.27,Single-ply,SBD,M,
Boys,74.84,5,Conner Richard,Vidor,67.22,140.61,83.91,154.22,378.75,Single-ply,SBD,M,
Boys,74.84,6,Kolten Delahoussaye,Nederland,72.76,140.61,79.38,151.95,371.95,Single-ply,SBD,M,
Boys,74.84,DQ,Trevor Hatton,Vidor,73.84,,,,,Single-ply,SBD,M,
Boys,82.1,1,Nate Stapleton,Lumberton,76.2,142.88,102.06,170.1,415.04,Single-ply,SBD,M,
Boys,82.1,2,Jimmy Pham,Nederland,77.2,145.15,88.45,158.76,392.36,Single-ply,SBD,M,
Boys,89.81,1,Johnnie Torres,Nederland,89.18,197.31,127.01,215.46,539.77,Single-ply,SBD,M,
Boys,89.81,2,Faustino Galvan,Lumberton,85.73,183.7,136.08,195.04,514.83,Single-ply,SBD,M,
Boys,89.81,3,Caysen Guerra,Nederland,85.18,199.58,108.86,142.88,451.32,Single-ply,SBD,M,
Boys,89.81,4,Logan Hodges,Sour Lake Hardin-Jefferson,88.54,170.1,92.99,165.56,428.64,Single-ply,SBD,M,
Boys,89.81,5,Paul Moore,Sour Lake Hardin-Jefferson,88.18,156.49,99.79,156.49,412.77,Single-ply,SBD,M,
Boys,89.81,6,Caleb Gay,Sour Lake Hardin-Jefferson,85.28,158.76,92.99,147.42,399.16,Single-ply,SBD,M,
Boys,89.81,7,Carter Concienne,Nederland,89.18,151.95,86.18,122.47,360.61,Single-ply,SBD,M,
Boys,99.79,1,Ben Leon,Sour Lake Hardin-Jefferson,97.79,242.67,156.49,217.72,616.89,Single-ply,SBD,M,
Boys,99.79,2,Robert Hendon,Lumberton,99.34,210.92,106.59,172.37,489.88,Single-ply,SBD,M,
Boys,109.77,1,Clayton Corne,Lumberton,107.05,233.6,120.2,217.72,571.53,Single-ply,SBD,M,
Boys,109.77,2,Steven Satterfield,Sour Lake Hardin-Jefferson,102.87,229.06,120.2,172.37,521.63,Single-ply,SBD,M,
Boys,109.77,3,Jonathan Lamberth,Lumberton,104.78,190.51,113.4,195.04,498.95,Single-ply,SBD,M,
Boys,109.77,4,Gabe Hernandez,Lumberton,107.5,192.78,111.13,170.1,474,Single-ply,SBD,M,
Boys,109.77,DQ,Matthew Gill,Nederland,102.87,208.65,156.49,,,Single-ply,SBD,M,
Boys,124.74,1,Jordan Smith,Vidor,123.65,299.37,208.65,244.94,752.96,Single-ply,SBD,M,
Boys,124.74,2,Aldo Salinas,Lumberton,122.92,238.14,124.74,226.8,589.67,Single-ply,SBD,M,
Boys,124.74,3,Holden Craver,Nederland,120.02,249.48,131.54,183.7,564.72,Single-ply,SBD,M,
Boys,124.74,4,Peter Thielen,Sour Lake Hardin-Jefferson,115.67,206.38,129.27,183.7,519.36,Single-ply,SBD,M,
Boys,124.74,5,Landon Wilcoxson,Vidor,113.94,204.12,120.2,165.56,489.88,Single-ply,SBD,M,
Boys,124.74,DQ,Micah Torres,Sour Lake Hardin-Jefferson,116.12,,,,,Single-ply,SBD,M,
Boys,139.71,1,Tyler Webb,Vidor,129.27,272.16,188.24,249.48,709.87,Single-ply,SBD,M,
Boys,139.71,2,Jonathan Petoskey,Lumberton,139.43,272.16,188.24,226.8,687.19,Single-ply,SBD,M,
Boys,139.71,3,Michael Marshall,Nederland,130.18,251.74,149.69,217.72,619.15,Single-ply,SBD,M,
Boys,,NS,Grant McWherter,Vidor,,,,,,Single-ply,SBD,M,
