Division,WeightClassKg,Place,Name,Team,BodyweightKg,Best3SquatKg,Best3BenchKg,Best3DeadliftKg,TotalKg,Equipment,Event,Sex,BirthDate
Boys,51.71,1,Nicholas Gutierrez,Boling,50.48,147.42,74.84,138.35,360.61,Single-ply,SBD,M,
Boys,51.71,2,Adan Alvarez,Boling,51.26,122.47,77.11,113.4,312.98,Single-ply,SBD,M,
Boys,51.71,3,Cade Janecek,East Bernard,51.62,106.59,61.23,140.61,308.44,Single-ply,SBD,M,
Boys,51.71,4,Chris Kopecky,East Bernard,49.8,90.72,52.16,104.33,247.21,Single-ply,SBD,M,
Boys,51.71,5,Hardy Hay,Weimar,47.4,56.7,38.56,77.11,172.37,Single-ply,SBD,M,
Boys,55.79,1,Josh Martinez,Wallis Brazos,54.88,111.13,65.77,113.4,290.3,Single-ply,SBD,M,
Boys,55.79,2,Cody Krupala,La Grange,52.84,102.06,65.77,115.67,283.5,Single-ply,SBD,M,
Boys,55.79,3,Matt Garza,La Grange,54.48,102.06,52.16,124.74,278.96,Single-ply,SBD,M,
Boys,55.79,4,Dalton Stanley,East Bernard,52.8,79.38,63.5,108.86,251.74,Single-ply,SBD,M,
Boys,59.87,1,Alerique Medrano,Boling,59.87,145.15,86.18,142.88,374.21,Single-ply,SBD,M,
Boys,59.87,2,Dakota Ford,Weimar,59.83,120.2,72.57,142.88,335.66,Single-ply,SBD,M,
Boys,67.13,1,Garrett Lero,Snook,66.77,172.37,113.4,167.83,453.59,Single-ply,SBD,M,
Boys,67.13,2,Waylon Schimcek,Weimar,65.41,133.81,77.11,145.15,356.07,Single-ply,SBD,M,
Boys,67.13,3,Jorge Olvera,Schulenburg,66.18,115.67,74.84,165.56,356.07,Single-ply,SBD,M,
Boys,67.13,4,Jackson Owens,La Grange,66.36,129.27,74.84,133.81,337.93,Single-ply,SBD,M,
Boys,67.13,5,David Velasquez,Schulenburg,63.09,106.59,74.84,122.47,303.91,Single-ply,SBD,M,
Boys,67.13,6,Chris Prado,Wallis Brazos,66.68,99.79,49.9,136.08,285.76,Single-ply,SBD,M,
Boys,74.84,1,Joey Townsend,Wallis Brazos,71.67,226.8,113.4,215.46,555.65,Single-ply,SBD,M,
Boys,74.84,2,Niklas Schatz,East Bernard,72.03,188.24,113.4,204.12,505.76,Single-ply,SBD,M,
Boys,74.84,3,Jastin Arbing,Boling,68.99,174.63,102.06,197.31,474,Single-ply,SBD,M,
Boys,74.84,4,Brody Reinecke,East Bernard,70.58,174.63,97.52,183.7,455.86,Single-ply,SBD,M,
Boys,74.84,5,Trent Mendez,Schulenburg,69.49,170.1,102.06,167.83,439.98,Single-ply,SBD,M,
Boys,74.84,6,Antonio Cano,Boling,71.53,172.37,99.79,161.03,433.18,Single-ply,SBD,M,
Boys,74.84,7,James Johnson,Snook,74.84,142.88,86.18,163.29,392.36,Single-ply,SBD,M,
Boys,74.84,8,Darius Lemos,East Bernard,72.48,149.69,92.99,147.42,390.09,Single-ply,SBD,M,
Boys,74.84,9,Vinny Aguilar,Wallis Brazos,73.94,120.2,68.04,115.67,303.91,Single-ply,SBD,M,
Boys,82.1,1,Blake Jedlicka,East Bernard,80.6,215.46,124.74,226.8,566.99,Single-ply,SBD,M,
Boys,82.1,2,Jesse Arrington,Boling,80.65,197.31,113.4,195.04,505.76,Single-ply,SBD,M,
Boys,82.1,3,Orlando Adame,Schulenburg,81.47,197.31,90.72,199.58,487.61,Single-ply,SBD,M,
Boys,82.1,4,James Butler,Wallis Brazos,80.74,136.08,95.25,170.1,401.43,Single-ply,SBD,M,
Boys,82.1,5,Clay Wolff,La Grange,75.98,142.88,97.52,149.69,390.09,Single-ply,SBD,M,
Boys,82.1,6,Austin Stech,Weimar,78.06,142.88,83.91,154.22,381.02,Single-ply,SBD,M,
Boys,82.1,DQ,Yordy Perez,Wallis Brazos,81.65,,,,,Single-ply,SBD,M,
Boys,89.81,1,J Galvan,East Bernard,83.1,226.8,149.69,226.8,603.28,Single-ply,SBD,M,
Boys,89.81,2,Jonathan Quevedo,Snook,84.37,170.1,106.59,181.44,458.13,Single-ply,SBD,M,
Boys,89.81,3,Jj Hurd,Altair Rice,89.81,174.63,83.91,197.31,455.86,Single-ply,SBD,M,
Boys,89.81,4,Roger Gradney,Altair Rice,82.64,176.9,83.91,190.51,451.32,Single-ply,SBD,M,
Boys,89.81,5,Juan Ferretiz,Weimar,87.95,161.03,83.91,199.58,444.52,Single-ply,SBD,M,
Boys,89.81,6,Alex Mata,Wallis Brazos,88.45,156.49,81.65,167.83,405.97,Single-ply,SBD,M,
Boys,89.81,7,Landon Little,La Grange,88.09,158.76,86.18,136.08,381.02,Single-ply,SBD,M,
Boys,89.81,8,Seth Wherry,Wallis Brazos,88.9,140.61,88.45,149.69,378.75,Single-ply,SBD,M,
Boys,89.81,9,Jonathan Almilla,Weimar,85.18,124.74,79.38,154.22,358.34,Single-ply,SBD,M,
Boys,89.81,10,Lucas Toro,Schulenburg,87.14,122.47,74.84,138.35,335.66,Single-ply,SBD,M,
Boys,89.81,DQ,Kasey Zientek,Wallis Brazos,87.54,201.85,113.4,,,Single-ply,SBD,M,
Boys,99.79,1,Hayden Pearson,Wallis Brazos,97.52,201.85,124.74,190.51,517.1,Single-ply,SBD,M,
Boys,99.79,2,Hayden Schulz,Schulenburg,95.53,158.76,102.06,165.56,426.38,Single-ply,SBD,M,
Boys,99.79,3,Garrett Harris,La Grange,91.94,151.95,92.99,174.63,419.57,Single-ply,SBD,M,
Boys,99.79,4,Jonoah Fonseca,Wallis Brazos,97.52,158.76,102.06,142.88,403.7,Single-ply,SBD,M,
Boys,99.79,5,Dylan Petrosky,Boling,93.62,145.15,95.25,147.42,387.82,Single-ply,SBD,M,
Boys,99.79,DQ,Hayden Minks,Wallis Brazos,98.43,,,,,Single-ply,SBD,M,
Boys,109.77,1,Cody Noriega,Snook,109.77,231.33,136.08,229.06,596.47,Single-ply,SBD,M,
Boys,109.77,2,Emanuel Gayton,Weimar,107.95,147.42,70.31,142.88,360.61,Single-ply,SBD,M,
Boys,124.74,1,Casen Ivy,East Bernard,120.43,219.99,124.74,229.06,573.79,Single-ply,SBD,M,
Boys,124.74,2,Hayden Splawn,La Grange,114.35,185.97,129.27,174.63,489.88,Single-ply,SBD,M,
Boys,124.74,3,Seth Bear,Boling,120.52,199.58,113.4,167.83,480.81,Single-ply,SBD,M,
Boys,124.74,4,D'Keenan Thompson,Schulenburg,119.34,158.76,115.67,145.15,419.57,Single-ply,SBD,M,
Boys,139.71,1,Isaiah Adams,Schulenburg,128.41,192.78,120.2,188.24,501.22,Single-ply,SBD,M,
Boys,139.71,2,Orlando Sanchez,La Grange,128.37,204.12,97.52,167.83,469.47,Single-ply,SBD,M,
Boys,139.71,DQ,Frankie Garcia,Boling,137.67,,,,,Single-ply,SBD,M,
Boys,,NS,Rudy Becerra,Boling,,,,,,Single-ply,SBD,M,
Boys,,NS,Marco Prado,Boling,,,,,,Single-ply,SBD,M,
Boys,,NS,Kaleb Rivera,East Bernard,,,,,,Single-ply,SBD,M,
Boys,,NS,Hunter Kopecky,East Bernard,,,,,,Single-ply,SBD,M,
Boys,,NS,Ryan O'Neal,Boling,,,,,,Single-ply,SBD,M,
Boys,,NS,Carlos Anaya,La Grange,,,,,,Single-ply,SBD,M,
Boys,,NS,Mark Glover,East Bernard,,,,,,Single-ply,SBD,M,
Boys,,NS,Luke Burton,Schulenburg,,,,,,Single-ply,SBD,M,
Boys,,NS,Luke Jakubik,Snook,,,,,,Single-ply,SBD,M,
Boys,,NS,Weston Pavlik,Weimar,,,,,,Single-ply,SBD,M,
