Division,WeightClassKg,Place,Name,Team,BodyweightKg,Best3SquatKg,Best3BenchKg,Best3DeadliftKg,TotalKg,Equipment,Event,Sex,BirthDate
Boys,55.79,1,Lakota Franklin,Fort Stockton,54.79,68.04,58.97,90.72,217.72,Single-ply,SBD,M,
Boys,59.87,1,Nick Morales,Pecos,56.25,124.74,70.31,122.47,317.51,Single-ply,SBD,M,
Boys,67.13,1,Adrian Hernandez,Fort Stockton,66.77,142.88,68.04,147.42,358.34,Single-ply,SBD,M,
Boys,67.13,2,Ricardo Garcia,Pecos,63.32,74.84,58.97,111.13,244.94,Single-ply,SBD,M,
Boys,67.13,3,Brandon Garcia,Pecos,67.13,74.84,61.23,106.59,242.67,Single-ply,SBD,M,
Boys,67.13,DQ,Tonas Garza,Andrews,66.5,,,,,Single-ply,SBD,M,
Boys,67.13,DQ,Jaylee Ibarra,Fort Stockton,66.32,185.97,,167.83,,Single-ply,SBD,M,
Boys,74.84,1,Gavin Rhoudes,Andrews,68.58,158.76,97.52,172.37,428.64,Single-ply,SBD,M,
Boys,74.84,2,Jose Armendariz,Andrews,72.39,124.74,74.84,158.76,358.34,Single-ply,SBD,M,
Boys,74.84,3,Adrian Estrella,Andrews,70.85,90.72,65.77,120.2,276.69,Single-ply,SBD,M,
Boys,82.1,1,David Madrid,Pecos,80.1,172.37,113.4,181.44,467.2,Single-ply,SBD,M,
Boys,82.1,2,Kevin Martinez,Andrews,80.01,158.76,108.86,156.49,424.11,Single-ply,SBD,M,
Boys,82.1,3,Javier Garcia #13,Andrews,75.02,129.27,99.79,185.97,415.04,Single-ply,SBD,M,
Boys,89.81,1,Ivan Gallegos,Andrews,83.01,163.29,88.45,167.83,419.57,Single-ply,SBD,M,
Boys,89.81,2,Daniel Guttierez,Andrews,89.45,113.4,90.72,142.88,347,Single-ply,SBD,M,
Boys,99.79,1,Diego Peregrino,Andrews,95.98,147.42,86.18,142.88,376.48,Single-ply,SBD,M,
Boys,99.79,2,Caleb Urias,Fort Stockton,92.26,113.4,63.5,133.81,310.71,Single-ply,SBD,M,
Boys,99.79,3,Devin Garcia,Pecos,95.44,61.23,47.63,102.06,210.92,Single-ply,SBD,M,
Boys,109.77,1,Gage Strain,Pecos,104.96,204.12,113.4,185.97,503.49,Single-ply,SBD,M,
Boys,124.74,1,Daniel Perea,Pecos,116.48,201.85,140.61,190.51,532.97,Single-ply,SBD,M,
Boys,124.74,2,Jayce Harris,Pecos,124.65,145.15,108.86,158.76,412.77,Single-ply,SBD,M,
Boys,124.74,3,Beau Orson,Andrews,117.75,117.93,88.45,149.69,356.07,Single-ply,SBD,M,
Boys,124.74,4,George Rodriguez,Andrews,111.4,117.93,77.11,115.67,310.71,Single-ply,SBD,M,
Boys,124.74,5,Ector Martinez,Fort Stockton,113.4,111.13,79.38,115.67,306.17,Single-ply,SBD,M,
Boys,139.71+,1,Hunter Cobb,Pecos,149.32,226.8,149.69,197.31,573.79,Single-ply,SBD,M,
