Division,WeightClassKg,Place,Name,Team,BodyweightKg,Best3SquatKg,Best3BenchKg,Best3DeadliftKg,TotalKg,Equipment,Event,Sex,BirthDate
Boys,59.87,1,Trey Ford,Odessa,59.06,106.59,72.57,115.67,294.84,Single-ply,SBD,M,
Boys,67.13,1,Isaac Estrada,Odessa,65.95,222.26,142.88,206.38,571.53,Single-ply,SBD,M,
Boys,67.13,2,Jonathan Hill,Midland Lee,66.41,165.56,99.79,195.04,460.4,Single-ply,SBD,M,
Boys,67.13,3,Teagan Marlowe,Midland,64.59,156.49,74.84,140.61,371.95,Single-ply,SBD,M,
Boys,67.13,4,Bailey Jowers,San Angelo Central,67.04,120.2,83.91,161.03,365.14,Single-ply,SBD,M,
Boys,74.84,1,Trent Gonzalez,Midland Lee,73.21,215.46,142.88,192.78,551.11,Single-ply,SBD,M,
Boys,74.84,2,Thomas Wells,Midland,71.3,174.63,74.84,192.78,442.25,Single-ply,SBD,M,
Boys,74.84,3,Daniel Balderas,Midland,70.85,158.76,79.38,167.83,405.97,Single-ply,SBD,M,
Boys,74.84,4,Cayden Ruiz,Midland,72.03,149.69,97.52,158.76,405.97,Single-ply,SBD,M,
Boys,74.84,5,Fabio Ramos,Odessa,72.03,136.08,92.99,151.95,381.02,Single-ply,SBD,M,
Boys,74.84,6,Enyeto Mystic,San Angelo Central,68.4,120.2,68.04,117.93,306.17,Single-ply,SBD,M,
Boys,82.1,1,Zion Ward,Midland,76.93,208.65,92.99,185.97,487.61,Single-ply,SBD,M,
Boys,82.1,2,James Fogle,Odessa,78.29,183.7,117.93,165.56,467.2,Single-ply,SBD,M,
Boys,82.1,3,Jackson Talley,Midland,81.1,172.37,92.99,165.56,430.91,Single-ply,SBD,M,
Boys,89.81,1,Leo Uresti,Midland Lee,83.82,215.46,149.69,233.6,598.74,Single-ply,SBD,M,
Boys,89.81,2,Jayden Rodriquez,Midland Lee,87.09,195.04,133.81,210.92,539.77,Single-ply,SBD,M,
Boys,89.81,3,Jett Glass,Midland,87.14,195.04,113.4,226.8,535.24,Single-ply,SBD,M,
Boys,89.81,4,Brock Aparicio,Midland,88.45,158.76,92.99,181.44,433.18,Single-ply,SBD,M,
Boys,89.81,5,Gordon Garcia,Odessa,82.74,138.35,113.4,165.56,417.3,Single-ply,SBD,M,
Boys,99.79,1,Hector Montes,Midland Lee,98.07,272.16,179.17,233.6,684.92,Single-ply,SBD,M,
Boys,99.79,2,Juan Carreon,Odessa,99.52,192.78,147.42,204.12,544.31,Single-ply,SBD,M,
Boys,99.79,3,Noah Heinemann,Midland Lee,96.43,201.85,142.88,183.7,528.44,Single-ply,SBD,M,
Boys,99.79,4,Bailey Johnson,Midland Lee,93.35,201.85,133.81,181.44,517.1,Single-ply,SBD,M,
Boys,99.79,5,Jose Guerrero,Odessa,99.79,161.03,124.74,172.37,458.13,Single-ply,SBD,M,
Boys,99.79,6,Sasha Dummer,Midland,98.79,174.63,111.13,158.76,444.52,Single-ply,SBD,M,
Boys,99.79,7,Isaiah Essary,Odessa,97.07,167.83,102.06,151.95,421.84,Single-ply,SBD,M,
Boys,109.77,1,Gary Brooks,Odessa,106.59,297.1,165.56,233.6,696.26,Single-ply,SBD,M,
Boys,109.77,2,Isaias Ramirez,Midland Lee,109.23,201.85,111.13,226.8,539.77,Single-ply,SBD,M,
Boys,109.77,3,Mikel Delgado,Midland,107.14,192.78,127.01,192.78,512.56,Single-ply,SBD,M,
Boys,109.77,4,Jonathan Dozal,Odessa,102.33,158.76,92.99,163.29,415.04,Single-ply,SBD,M,
Boys,124.74,DQ,Cade Decker,Midland Lee,110.68,158.76,,,,Single-ply,SBD,M,
Boys,139.71,1,Jacob Vasquez,Midland,125.01,206.38,106.59,206.38,519.36,Single-ply,SBD,M,
Boys,139.71,2,Legend Cabello,Midland Lee,132.72,183.7,92.99,174.63,451.32,Single-ply,SBD,M,
Boys,139.71,DQ,Cam Curry,Midland Lee,136.44,254.01,,,,Single-ply,SBD,M,
Boys,139.71+,1,John Martinez-Guedry,Midland,155.4,240.4,129.27,222.26,591.94,Single-ply,SBD,M,
