Division,WeightClassKg,Place,Name,Team,BodyweightKg,Best3SquatKg,Best3BenchKg,Best3DeadliftKg,TotalKg,Equipment,Event,Sex,BirthDate
Boys,51.71,1,Collen Prickett,Amarillo Highland Park,47.72,97.52,61.23,90.72,249.48,Single-ply,SBD,M,
Boys,55.79,1,Giovanny Ponce,Friona,54.98,156.49,77.11,158.76,392.36,Single-ply,SBD,M,
Boys,55.79,2,Jeremey Rodriguez,Tulia,55.16,138.35,72.57,154.22,365.14,Single-ply,SBD,M,
Boys,55.79,3,Ethan Martinez,Wolfforth Frenship,54.98,127.01,70.31,136.08,333.39,Single-ply,SBD,M,
Boys,55.79,4,Michael Bautista,Friona,54.25,120.2,74.84,124.74,319.78,Single-ply,SBD,M,
Boys,55.79,5,Adolfo Rodriguez,Amarillo Highland Park,55.43,90.72,68.04,133.81,292.57,Single-ply,SBD,M,
Boys,55.79,6,Dominic Galvan,Amarillo Highland Park,53.89,92.99,68.04,120.2,281.23,Single-ply,SBD,M,
Boys,59.87,1,Mario Bautista,Friona,59.87,142.88,104.33,147.42,394.63,Single-ply,SBD,M,
Boys,59.87,2,Johnson Phan,Amarillo Highland Park,58.69,142.88,77.11,161.03,381.02,Single-ply,SBD,M,
Boys,59.87,3,Gabriel Reyes,Dimmitt,57.24,115.67,86.18,154.22,356.07,Single-ply,SBD,M,
Boys,59.87,4,Justin Dyke,Muleshoe,57.42,124.74,79.38,124.74,328.85,Single-ply,SBD,M,
Boys,67.13,1,Stefon Brown,Tulia,64.05,142.88,95.25,183.7,421.84,Single-ply,SBD,M,
Boys,67.13,2,Jose Herrera,Amarillo Highland Park,61.87,142.88,102.06,172.37,417.3,Single-ply,SBD,M,
Boys,67.13,3,Uriel Vasquez,Muleshoe,62.87,161.03,99.79,145.15,405.97,Single-ply,SBD,M,
Boys,67.13,4,Ivan Fernandez,Tulia,63.87,151.95,72.57,172.37,396.89,Single-ply,SBD,M,
Boys,67.13,5,Vincent Yarbrough,Tulia,61.96,133.81,79.38,181.44,394.63,Single-ply,SBD,M,
Boys,67.13,6,Ryan Clifton,Muleshoe,66.5,142.88,77.11,158.76,378.75,Single-ply,SBD,M,
Boys,67.13,7,Noah Cantu,Muleshoe,62.87,142.88,74.84,129.27,347,Single-ply,SBD,M,
Boys,67.13,8,Matthew Landin,Wolfforth Frenship,66.41,115.67,65.77,151.95,333.39,Single-ply,SBD,M,
Boys,74.84,1,John Wall,Dimmitt,73.66,174.63,117.93,181.44,474,Single-ply,SBD,M,
Boys,74.84,2,Junior Garcia,Amarillo Highland Park,69.85,129.27,81.65,165.56,376.48,Single-ply,SBD,M,
Boys,74.84,3,Tony Rodriguez,Friona,74.03,147.42,77.11,151.95,376.48,Single-ply,SBD,M,
Boys,74.84,4,Austin Bunn,Tulia,74.75,113.4,72.57,145.15,331.12,Single-ply,SBD,M,
Boys,74.84,5,Jayden Johns,Wolfforth Frenship,71.21,120.2,72.57,136.08,328.85,Single-ply,SBD,M,
Boys,74.84,6,Jarett White,Friona,72.85,117.93,70.31,140.61,328.85,Single-ply,SBD,M,
Boys,74.84,7,Angel Catalan,Dimmitt,73.66,115.67,70.31,138.35,324.32,Single-ply,SBD,M,
Boys,74.84,8,Isaac Olmos,Friona,69.4,117.93,74.84,124.74,317.51,Single-ply,SBD,M,
Boys,74.84,9,Adrik Bustos,Dimmitt,67.49,70.31,56.7,88.45,215.46,Single-ply,SBD,M,
Boys,82.1,1,Luke Unterkircher,Tulia,77.56,158.76,97.52,181.44,437.72,Single-ply,SBD,M,
Boys,82.1,2,Mathew Dimas,Friona,79.56,165.56,90.72,167.83,424.11,Single-ply,SBD,M,
Boys,82.1,3,Caleb McDowell,Tulia,80.2,158.76,81.65,181.44,421.84,Single-ply,SBD,M,
Boys,82.1,4,Damian Arriaga,Dimmitt,80.1,165.56,83.91,163.29,412.77,Single-ply,SBD,M,
Boys,82.1,5,Donavon Cardenas,Amarillo Highland Park,75.21,142.88,102.06,163.29,408.23,Single-ply,SBD,M,
Boys,82.1,6,Tyler Farley,Amarillo Highland Park,78.93,129.27,92.99,163.29,385.55,Single-ply,SBD,M,
Boys,82.1,7,Novy Vela,Wolfforth Frenship,77.75,131.54,79.38,138.35,349.27,Single-ply,SBD,M,
Boys,82.1,8,Jonathan Cavarrubias,Wolfforth Frenship,80.47,97.52,61.23,145.15,303.91,Single-ply,SBD,M,
Boys,82.1,9,Gabe Abarca,Friona,80.56,122.47,61.23,117.93,301.64,Single-ply,SBD,M,
Boys,89.81,1,Joe Barrera,Tulia,88.45,226.8,142.88,226.8,596.47,Single-ply,SBD,M,
Boys,89.81,2,Jerimiah Washington,Wolfforth Frenship,89.36,208.65,106.59,238.14,553.38,Single-ply,SBD,M,
Boys,89.81,3,Eduardo Juarez,Friona,89.63,156.49,86.18,145.15,387.82,Single-ply,SBD,M,
Boys,89.81,4,Abraham Loeza,Dimmitt,85.73,142.88,97.52,142.88,383.29,Single-ply,SBD,M,
Boys,99.79,1,Gerardo Gonzales,Dimmitt,99.79,210.92,106.59,226.8,544.31,Single-ply,SBD,M,
Boys,99.79,2,Jesus Lopez,Dimmitt,94.35,188.24,83.91,183.7,455.86,Single-ply,SBD,M,
Boys,99.79,3,Aiden Herrera,Wolfforth Frenship,97.79,142.88,102.06,158.76,403.7,Single-ply,SBD,M,
Boys,109.77,1,Aaron Rodriguez,Friona,107.23,201.85,83.91,174.63,460.4,Single-ply,SBD,M,
Boys,109.77,2,Anthony Abarca,Friona,103.96,181.44,97.52,172.37,451.32,Single-ply,SBD,M,
Boys,109.77,3,Frank Perez,Friona,107.32,172.37,97.52,163.29,433.18,Single-ply,SBD,M,
Boys,124.74,1,Elias Aquirre,Muleshoe,115.94,260.82,158.76,199.58,619.15,Single-ply,SBD,M,
Boys,124.74,2,Chris Lea,Wolfforth Frenship,119.02,183.7,102.06,197.31,483.08,Single-ply,SBD,M,
Boys,124.74,3,Blaize Whitaker,Wolfforth Frenship,123.56,145.15,127.01,183.7,455.86,Single-ply,SBD,M,
Boys,124.74,4,Luis Díaz,Dimmitt,110.95,142.88,83.91,156.49,383.29,Single-ply,SBD,M,
Boys,139.71,1,Joshua Rangel,Wolfforth Frenship,133.08,145.15,106.59,154.22,405.97,Single-ply,SBD,M,
Boys,139.71+,1,DeVondre Sledge,Tulia,153.95,208.65,145.15,226.8,580.6,Single-ply,SBD,M,
Boys,,NS,Andrew Barrios,Tulia,,,,,,Single-ply,SBD,M,
Boys,,NS,Riley Garcia,Wolfforth Frenship,,,,,,Single-ply,SBD,M,
Boys,,NS,Jermaine Stotts,Wolfforth Frenship,,,,,,Single-ply,SBD,M,
Boys,,NS,William VanZee,Dimmitt,,,,,,Single-ply,SBD,M,
Boys,,NS,Jorge Hernandez,Dimmitt,,,,,,Single-ply,SBD,M,
Boys,,NS,Zechariah Dumas,Amarillo Highland Park,,,,,,Single-ply,SBD,M,
Boys,,NS,Rodie Mayes,Amarillo Highland Park,,,,,,Single-ply,SBD,M,
Boys,,NS,Azariah Gonzolas,Dimmitt,,,,,,Single-ply,SBD,M,
