Division,WeightClassKg,Place,Name,Team,BodyweightKg,Best3SquatKg,Best3BenchKg,Best3DeadliftKg,TotalKg,Equipment,Event,Sex,BirthDate
Boys,51.71,1,Jacob Guerrero,Yorktown,51.71,154.22,88.45,149.69,392.36,Single-ply,SBD,M,
Boys,51.71,2,Isaiah Luna,Poth,45.36,79.38,49.9,102.06,231.33,Single-ply,SBD,M,
Boys,55.79,1,Bryan Peralta,Yorktown,55.43,147.42,70.31,151.95,369.68,Single-ply,SBD,M,
Boys,55.79,2,Emilio Garza,Poth,55.52,106.59,54.43,111.13,272.16,Single-ply,SBD,M,
Boys,59.87,1,Nicolas Martinez,Stockdale,57.97,161.03,83.91,163.29,408.23,Single-ply,SBD,M,
Boys,59.87,2,Morris Brown,Kenedy,59.42,149.69,81.65,151.95,383.29,Single-ply,SBD,M,
Boys,59.87,3,Koltan Kurtz,Poth,59.87,86.18,49.9,111.13,247.21,Single-ply,SBD,M,
Boys,67.13,1,Alex Sanchez,Kenedy,66.5,185.97,102.06,197.31,485.34,Single-ply,SBD,M,
Boys,67.13,2,Ashton Gomez,Stockdale,62.69,163.29,92.99,156.49,412.77,Single-ply,SBD,M,
Boys,67.13,3,Bryan Leal,Kenedy,63.41,142.88,72.57,161.03,376.48,Single-ply,SBD,M,
Boys,74.84,1,Javen Mendiola,Cuero,72.39,195.04,124.74,224.53,544.31,Single-ply,SBD,M,
Boys,74.84,2,Matthew Jarombets,Poth,74.75,165.56,97.52,204.12,467.2,Single-ply,SBD,M,
Boys,74.84,3,Jaydin Chapa,Kenedy,74.57,174.63,92.99,188.24,455.86,Single-ply,SBD,M,
Boys,74.84,4,Carson Smolka,Poth,73.84,167.83,99.79,172.37,439.98,Single-ply,SBD,M,
Boys,74.84,5,Alex Ramon,Poth,74.03,151.95,97.52,161.03,410.5,Single-ply,SBD,M,
Boys,74.84,6,Trenyyn Volkel,Stockdale,70.13,147.42,86.18,165.56,399.16,Single-ply,SBD,M,
Boys,74.84,7,Nikolaus Mahlestede,Stockdale,67.86,124.74,83.91,154.22,362.87,Single-ply,SBD,M,
Girls,75.07,DQ,Morgan Goebel,Cuero,73.57,,74.84,,,Single-ply,SBD,F,
Boys,82.1,1,Cody Baker,Cuero,78.02,226.8,142.88,217.72,587.4,Single-ply,SBD,M,
Boys,82.1,2,Tristan Trevino,Poth,81.1,226.8,124.74,204.12,555.65,Single-ply,SBD,M,
Boys,82.1,3,Javaree Bacon,Cuero,82.1,226.8,108.86,195.04,530.7,Single-ply,SBD,M,
Boys,82.1,4,Patrick Segura,Kenedy,81.47,181.44,86.18,181.44,449.06,Single-ply,SBD,M,
Boys,82.1,5,Calvin Lopez,Kenedy,81.74,170.1,106.59,151.95,428.64,Single-ply,SBD,M,
Boys,82.1,DQ,Willie Chapa,Poth,78.65,,68.04,,,Single-ply,SBD,M,
Boys,89.81,1,Alvin Amador,Kenedy,87.09,229.06,127.01,231.33,587.4,Single-ply,SBD,M,
Boys,89.81,2,Jared Villanueva,Cuero,89.63,188.24,117.93,206.38,512.56,Single-ply,SBD,M,
Boys,89.81,3,Adrian Flores,Kenedy,86.64,201.85,102.06,197.31,501.22,Single-ply,SBD,M,
Boys,89.81,4,Andres Ruiz,Poth,84.37,172.37,102.06,183.7,458.13,Single-ply,SBD,M,
Boys,99.79,1,Chris Keiser,Stockdale,99.79,217.72,142.88,231.33,591.94,Single-ply,SBD,M,
Boys,99.79,2,Nando Vargas,Kenedy,94.39,226.8,113.4,238.14,578.33,Single-ply,SBD,M,
Boys,99.79,DQ,Caleb Smith,Cuero,96.8,,,,,Single-ply,SBD,M,
Boys,109.77,1,Mark Alvico,Poth,109.68,272.16,136.08,204.12,612.35,Single-ply,SBD,M,
Boys,109.77,2,Alex Gonzalez,Kenedy,103.42,226.8,122.47,197.31,546.58,Single-ply,SBD,M,
Boys,109.77,DQ,Logan Baker,Stockdale,108.14,,,,,Single-ply,SBD,M,
Boys,124.74,1,Kyle Weghorst,Cuero,119.11,272.16,142.88,204.12,619.15,Single-ply,SBD,M,
Boys,124.74,2,Joseph Luna,Kenedy,123.1,238.14,151.95,219.99,610.08,Single-ply,SBD,M,
Boys,124.74,3,Ryland Reyna,Kenedy,111.86,201.85,124.74,213.19,539.77,Single-ply,SBD,M,
Boys,124.74,4,Ethan Pompa,Yorktown,111.81,219.99,106.59,190.51,517.1,Single-ply,SBD,M,
Girls,117.71,DQ,Rian Garza,Kenedy,113.85,185.97,79.38,142.88,,Single-ply,SBD,F,
Boys,124.74,DQ,Nick Sanchez,Poth,121.93,226.8,124.74,,,Single-ply,SBD,M,
Boys,139.71,1,Zackaria Biessar,Stockdale,131.63,204.12,111.13,190.51,505.76,Single-ply,SBD,M,
Boys,139.71,2,Hunter Hall,Yorktown,136.08,181.44,104.33,170.1,455.86,Single-ply,SBD,M,
Boys,139.71+,DQ,Jonas DeLeon,Cuero,159.03,224.53,,,,Single-ply,SBD,M,
