Division,WeightClassKg,Place,Name,Team,BodyweightKg,Best3SquatKg,Best3BenchKg,Best3DeadliftKg,TotalKg,Equipment,Event,Sex
Boys,51.71,1,Jaime Luna,Palmer,50.8,138.35,58.97,129.27,326.59,Single-ply,SBD,M
Boys,51.71,2,Brian Pafford,Godley,48.63,111.13,65.77,117.93,294.84,Single-ply,SBD,M
Boys,51.71,3,Antonio Ponce,Glen Rose,47.17,108.86,49.9,113.4,272.16,Single-ply,SBD,M
Boys,51.71,4,Jordan Whiteside,Peaster,49.62,95.25,65.77,111.13,272.16,Single-ply,SBD,M
Boys,51.71,5,Austin Carter,Rio Vista,50.53,90.72,63.5,115.67,269.89,Single-ply,SBD,M
Boys,51.71,6,Daniel Pafford,Godley,49.99,102.06,49.9,106.59,258.55,Single-ply,SBD,M
Boys,51.71,7,Cody Halcom,Glen Rose,44.54,79.38,40.82,95.25,215.46,Single-ply,SBD,M
Boys,55.79,1,Weston Decker,Peaster,54.98,142.88,81.65,163.29,387.82,Single-ply,SBD,M
Boys,55.79,2,Trevor Richard,Chico,55.43,124.74,68.04,149.69,342.46,Single-ply,SBD,M
Boys,55.79,3,Jonathan Taylor,Lingleville,54.79,113.4,63.5,149.69,326.59,Single-ply,SBD,M
Boys,55.79,4,Chris Kimbell,Cleburne,55.43,117.93,65.77,111.13,294.84,Single-ply,SBD,M
Boys,55.79,5,Garrett Mowles,Venus,54.79,83.91,61.23,104.33,249.48,Single-ply,SBD,M
Boys,67.13,1,Salvador Perez,Palmer,59.96,145.15,68.04,172.37,385.55,Single-ply,SBD,M
Boys,59.87,2,Ivan Karabanoff,Peaster,58.24,138.35,79.38,165.56,383.29,Single-ply,SBD,M
Boys,67.13,3,Chad Heitman,Godley,60.06,136.08,83.91,142.88,362.87,Single-ply,SBD,M
Boys,59.87,4,Jarrod Wooten,Peaster,59.78,106.59,65.77,120.2,292.57,Single-ply,SBD,M
Boys,67.13,5,Trey Sowell,Oakridge School,59.96,106.59,56.7,113.4,276.69,Single-ply,SBD,M
Boys,67.13,1,Coy Hart,Venus,64.95,181.44,104.33,183.7,469.47,Single-ply,SBD,M
Boys,67.13,2,Jeremy Fuentes,Cleburne,66.77,161.03,90.72,176.9,428.64,Single-ply,SBD,M
Boys,67.13,3,Taylor Clark #1,Joshua,65.32,140.61,95.25,151.95,387.82,Single-ply,SBD,M
Boys,67.13,4,Taylor Luce,Godley,63.82,156.49,81.65,145.15,383.29,Single-ply,SBD,M
Boys,67.13,5,Trevor Crawford,Glen Rose,66.41,142.88,86.18,151.95,381.02,Single-ply,SBD,M
Boys,67.13,6,Nathan Smith #9,Glen Rose,64.77,136.08,83.91,154.22,374.21,Single-ply,SBD,M
Boys,67.13,7,Levi Mowles,Venus,64.95,136.08,74.84,161.03,371.95,Single-ply,SBD,M
Boys,67.13,8,Cory Anderson,Godley,66.86,142.88,86.18,142.88,371.95,Single-ply,SBD,M
Boys,67.13,9,York Doby,Peaster,65.32,136.08,77.11,145.15,358.34,Single-ply,SBD,M
Boys,67.13,10,Colton Miller,Glen Rose,66.68,127.01,79.38,142.88,349.27,Single-ply,SBD,M
Boys,67.13,11,Brady Barnett,Rio Vista,66.41,117.93,70.31,140.61,328.85,Single-ply,SBD,M
Boys,67.13,12,Weston Clifton,Glen Rose,62.96,104.33,74.84,147.42,326.59,Single-ply,SBD,M
Boys,67.13,13,Blake Echols,Oakridge School,61.6,113.4,61.23,140.61,315.25,Single-ply,SBD,M
Boys,67.13,14,Skylar Johnson #3,Rio Vista,61.6,90.72,61.23,120.2,272.16,Single-ply,SBD,M
Boys,67.13,15,Dillon Hackworth,Chico,60.6,95.25,52.16,104.33,251.74,Single-ply,SBD,M
Boys,67.13,DQ,Austin Wyatt,Peaster,67.13,,,,,Single-ply,SBD,M
Boys,74.84,1,Rene Rivas,Venus,69.31,192.78,108.86,217.72,519.36,Single-ply,SBD,M
Boys,74.84,2,Ian Valdez,Glen Rose,68.08,195.04,99.79,172.37,467.2,Single-ply,SBD,M
Boys,74.84,3,Jake Mears,Joshua,71.4,167.83,88.45,204.12,460.4,Single-ply,SBD,M
Boys,74.84,4,Colin Radford,Joshua,73.66,167.83,104.33,181.44,453.59,Single-ply,SBD,M
Boys,74.84,5,Addison Hunter,Lingleville,74.84,145.15,90.72,181.44,417.3,Single-ply,SBD,M
Boys,74.84,6,Hector Zamarripa,Palmer,70.03,142.88,106.59,165.56,415.04,Single-ply,SBD,M
Boys,74.84,7,Jacob Leal,Lingleville,74.84,145.15,81.65,163.29,390.09,Single-ply,SBD,M
Boys,74.84,8,Bryan Robb,Oakridge School,72.76,127.01,77.11,183.7,387.82,Single-ply,SBD,M
Boys,74.84,9,Hayden Swearingin,Glen Rose,68.49,136.08,86.18,147.42,369.68,Single-ply,SBD,M
Boys,74.84,10,Jose Jimenez,Venus,69.76,140.61,63.5,158.76,362.87,Single-ply,SBD,M
Boys,74.84,11,Trey Willis,Oakridge School,74.03,131.54,65.77,154.22,351.53,Single-ply,SBD,M
Boys,74.84,12,Alex Diaz #3,Oakridge School,71.94,102.06,70.31,147.42,319.78,Single-ply,SBD,M
Boys,74.84,13,Austin Collins,Chico,69.85,124.74,72.57,117.93,315.25,Single-ply,SBD,M
Boys,74.84,14,Bryan White,Chico,73.66,108.86,74.84,127.01,310.71,Single-ply,SBD,M
Boys,74.84,DQ,Brick Martin,Peaster,69.76,170.1,,,,Single-ply,SBD,M
Boys,74.84,DQ,Josh Beasley,Glen Rose,72.21,172.37,,170.1,,Single-ply,SBD,M
Boys,74.84,DQ,Senovio Delagarza,Glen Rose,67.68,136.08,,151.95,,Single-ply,SBD,M
Boys,82.1,1,Victor Velazquez,Chico,75.3,192.78,99.79,217.72,510.29,Single-ply,SBD,M
Boys,82.1,2,Zach Haler,Cleburne,82.01,190.51,131.54,188.24,510.29,Single-ply,SBD,M
Boys,82.1,3,Kyle Young #3,Chico,82.1,181.44,108.86,185.97,476.27,Single-ply,SBD,M
Boys,82.1,4,Brett Bicknell,Oakridge School,81.83,183.7,102.06,181.44,467.2,Single-ply,SBD,M
Boys,82.1,5,Vontrell Grant,Cleburne,79.29,158.76,106.59,197.31,462.66,Single-ply,SBD,M
Boys,82.1,6,Jason Burgett,Palmer,75.48,167.83,92.99,183.7,444.52,Single-ply,SBD,M
Boys,82.1,7,Chase Hamilton,Italy,76.75,149.69,102.06,158.76,410.5,Single-ply,SBD,M
Boys,82.1,8,Cameron Shulte,Boyd,78.38,158.76,83.91,163.29,405.97,Single-ply,SBD,M
Boys,82.1,9,Israel Espinosa,Chico,78.2,151.95,79.38,165.56,396.89,Single-ply,SBD,M
Boys,82.1,10,Austin Schaffer,Oakridge School,78.74,127.01,72.57,156.49,356.07,Single-ply,SBD,M
Boys,82.1,11,Kyle Fortenberry,Italy,76.66,113.4,63.5,113.4,290.3,Single-ply,SBD,M
Boys,82.1,12,Tyler Crowley,Italy,79.74,65.77,40.82,90.72,197.31,Single-ply,SBD,M
Boys,82.1,DQ,Collin Keithley,Oakridge School,75.11,,,,,Single-ply,SBD,M
Boys,82.1,DQ,Dylan Esquivel,Godley,79.56,136.08,,,,Single-ply,SBD,M
Boys,82.1,DQ,Levi Cuevas,Cleburne,82.01,188.24,115.67,,,Single-ply,SBD,M
Boys,89.81,1,KJ Evans,Joshua,84.37,217.72,138.35,235.87,591.94,Single-ply,SBD,M
Boys,89.81,2,Ivan Garcia,Peaster,88.36,222.26,154.22,215.46,591.94,Single-ply,SBD,M
Boys,89.81,3,Ben Mungia,Glen Rose,84.46,240.4,113.4,206.38,560.19,Single-ply,SBD,M
Boys,89.81,4,Eric Martinez,Venus,89.54,174.63,122.47,213.19,510.29,Single-ply,SBD,M
Boys,89.81,5,Tory Endtricht,Cleburne,89.18,172.37,117.93,185.97,476.27,Single-ply,SBD,M
Boys,89.81,6,Dustin Cheatham,Godley,88.72,181.44,97.52,195.04,474,Single-ply,SBD,M
Boys,89.81,7,Erick Torres,Palmer,85.82,154.22,104.33,140.61,399.16,Single-ply,SBD,M
Boys,89.81,8,Jordan Mcquiston,Rio Vista,86.27,147.42,61.23,158.76,367.41,Single-ply,SBD,M
Boys,89.81,9,Jose Diaz #8,Joshua,84.37,136.08,79.38,129.27,344.73,Single-ply,SBD,M
Boys,89.81,10,Luis Alcivar,Boyd,86.91,127.01,63.5,136.08,326.59,Single-ply,SBD,M
Boys,89.81,11,Robin Agir,Oakridge School,82.37,102.06,54.43,129.27,285.76,Single-ply,SBD,M
Boys,89.81,DQ,Jordan Ebbens,Cleburne,89.58,154.22,88.45,,,Single-ply,SBD,M
Boys,99.79,1,Josh Whitworth,Joshua,94.17,208.65,138.35,213.19,560.19,Single-ply,SBD,M
Boys,99.79,2,Andrew Hultin,Godley,96.25,204.12,127.01,213.19,544.31,Single-ply,SBD,M
Boys,99.79,3,Ace Navarrete,Glen Rose,92.8,204.12,102.06,181.44,487.61,Single-ply,SBD,M
Boys,99.79,4,Andrew Young #3,Joshua,97.07,197.31,99.79,170.1,467.2,Single-ply,SBD,M
Boys,99.79,5,Dustin Kemp,Palmer,99.43,181.44,102.06,183.7,467.2,Single-ply,SBD,M
Boys,99.79,6,Martin Vasquez,Lingleville,93.53,172.37,95.25,183.7,451.32,Single-ply,SBD,M
Boys,99.79,7,Dawson Matheny,Glen Rose,96.07,158.76,104.33,167.83,430.91,Single-ply,SBD,M
Boys,99.79,8,Derrick McElreath,Rio Vista,95.89,136.08,102.06,158.76,396.89,Single-ply,SBD,M
Boys,99.79,9,Rj Darch,Glen Rose,94.98,120.2,63.5,136.08,319.78,Single-ply,SBD,M
Boys,99.79,DQ,Heath Nicholson,Glen Rose,95.98,181.44,,,,Single-ply,SBD,M
Boys,109.77,1,James Thornburg,Cleburne,107.86,226.8,142.88,226.8,596.47,Single-ply,SBD,M
Boys,109.77,2,Dalton Carter,Joshua,100.06,222.26,138.35,213.19,573.79,Single-ply,SBD,M
Boys,109.77,3,Cruz Marquez,Joshua,104.69,197.31,102.06,213.19,512.56,Single-ply,SBD,M
Boys,109.77,4,Jordan Dugan,Godley,106.59,204.12,113.4,195.04,512.56,Single-ply,SBD,M
Boys,124.74,5,Diamond Cardona,Godley,109.95,170.1,108.86,199.58,478.54,Single-ply,SBD,M
Boys,109.77,6,Grant Johnson,Oakridge School,106.78,188.24,102.06,176.9,467.2,Single-ply,SBD,M
Boys,109.77,7,Max Driscoll,Godley,106.41,161.03,122.47,167.83,451.32,Single-ply,SBD,M
Boys,109.77,8,Drannon Brewer,Glen Rose,101.33,147.42,72.57,149.69,369.68,Single-ply,SBD,M
Boys,109.77,9,Collin Newman,Italy,106.05,120.2,70.31,120.2,310.71,Single-ply,SBD,M
Boys,109.77,10,Colby Low,Peaster,105.69,95.25,49.9,111.13,256.28,Single-ply,SBD,M
Boys,124.74,1,Jared Thames,Glen Rose,119.48,274.42,190.51,244.94,709.87,Single-ply,SBD,M
Boys,124.74,2,Blake Washington,Godley,117.93,233.6,158.76,217.72,610.08,Single-ply,SBD,M
Boys,124.74,3,Kyle Parkinson,Cleburne,119.48,231.33,117.93,197.31,546.58,Single-ply,SBD,M
Boys,124.74,4,Kelton Bales,Italy,116.3,181.44,81.65,165.56,428.64,Single-ply,SBD,M
Boys,124.74,DQ,Raul Torres,Palmer,121.02,226.8,131.54,,,Single-ply,SBD,M
Boys,124.74,DQ,Treu Vang,Boyd,112.58,222.26,102.06,,,Single-ply,SBD,M
Boys,124.74,DQ,Luke Sime,Boyd,119.2,181.44,95.25,,,Single-ply,SBD,M
Boys,124.74+,1,Zac Perez,Glen Rose,126.01,317.51,172.37,219.99,709.87,Single-ply,SBD,M
Boys,124.74+,2,Eduardo Cassio,Cleburne,134.9,249.48,136.08,181.44,566.99,Single-ply,SBD,M
Boys,124.74+,3,Dylan Hamilton,Godley,136.8,233.6,138.35,195.04,566.99,Single-ply,SBD,M
Boys,124.74+,4,Kyle Green,Joshua,152.86,201.85,136.08,204.12,542.04,Single-ply,SBD,M
Boys,124.74+,5,Caleb Riley,Joshua,133.45,208.65,129.27,185.97,523.9,Single-ply,SBD,M
Boys,124.74+,DQ,Kyle Speicher,Godley,129.36,254.01,147.42,,,Single-ply,SBD,M
