Division,WeightClassKg,Place,Name,Team,BodyweightKg,Best3SquatKg,Best3BenchKg,Best3DeadliftKg,TotalKg,Equipment,Event,Sex,BirthDate
Boys,55.79,1,Kyler Burden,Montgomery Lake Creek,54.48,95.25,54.43,102.06,251.74,Single-ply,SBD,M,
Boys,59.87,1,Emory Nicholson,Montgomery,58.51,142.88,102.06,165.56,410.5,Single-ply,SBD,M,
Boys,67.13,1,Joseph Stokes,Montgomery Lake Creek,66.32,161.03,102.06,208.65,471.74,Single-ply,SBD,M,
Boys,67.13,2,Macoy Noack,Conroe The Woodlands,65.41,161.03,90.72,158.76,410.5,Single-ply,SBD,M,
Boys,74.84,1,Alexander Tsang,Montgomery,73.48,201.85,131.54,185.97,519.36,Single-ply,SBD,M,
Boys,74.84,2,Gerard Culotta,Montgomery Lake Creek,72.48,163.29,81.65,165.56,410.5,Single-ply,SBD,M,
Boys,74.84,3,Alex Conjelko,Conroe The Woodlands,72.12,154.22,74.84,140.61,369.68,Single-ply,SBD,M,
Boys,74.84,DQ,Cade Rochinski,Montgomery Lake Creek,74.39,,,,,Single-ply,SBD,M,
Boys,82.1,1,Cayden Clayton,Conroe The Woodlands,80.29,201.85,111.13,201.85,514.83,Single-ply,SBD,M,
Boys,82.1,2,Cody Kelley,Montgomery Lake Creek,79.92,204.12,115.67,190.51,510.29,Single-ply,SBD,M,
Boys,82.1,3,Grant Balke,Montgomery Lake Creek,81.65,170.1,113.4,172.37,455.86,Single-ply,SBD,M,
Boys,82.1,4,Cort Britten,Conroe The Woodlands,79.38,129.27,81.65,124.74,335.66,Single-ply,SBD,M,
Boys,82.1,5,Andrew Faulkner,Conroe The Woodlands,75.66,108.86,63.5,117.93,290.3,Single-ply,SBD,M,
Boys,89.81,1,Zach Downs,Montgomery Lake Creek,85.32,190.51,120.2,226.8,537.51,Single-ply,SBD,M,
Boys,89.81,2,Luke Ryan,Montgomery Lake Creek,89.27,204.12,117.93,215.46,537.51,Single-ply,SBD,M,
Boys,89.81,3,Nathan Klie,Conroe The Woodlands,86.64,136.08,83.91,161.03,381.02,Single-ply,SBD,M,
Boys,89.81,4,Wilson Woodruff,Conroe The Woodlands,86.91,136.08,81.65,158.76,376.48,Single-ply,SBD,M,
Boys,99.79,1,Leslie Williams,Montgomery,95.71,233.6,151.95,242.67,628.23,Single-ply,SBD,M,
Boys,99.79,2,Zach Cooper,Montgomery,98.43,195.04,147.42,238.14,580.6,Single-ply,SBD,M,
Boys,99.79,3,Carson Miller,Montgomery,97.07,183.7,120.2,206.38,510.29,Single-ply,SBD,M,
Boys,99.79,4,Jakob Handy,Conroe The Woodlands,95.25,188.24,102.06,188.24,478.54,Single-ply,SBD,M,
Boys,99.79,5,Aidan Kaplan,Montgomery Lake Creek,99.79,149.69,108.86,158.76,417.3,Single-ply,SBD,M,
Boys,99.79,6,Reece Findley,Montgomery Lake Creek,96.62,154.22,90.72,158.76,403.7,Single-ply,SBD,M,
Boys,99.79,7,Anthony Chukwuemeka,Conroe The Woodlands,99.34,136.08,104.33,142.88,383.29,Single-ply,SBD,M,
Boys,99.79,8,Connor Moomaw,Conroe The Woodlands,96.43,77.11,58.97,97.52,233.6,Single-ply,SBD,M,
Boys,109.77,1,Ethan Wiggins,Montgomery Lake Creek,108.41,235.87,156.49,226.8,619.15,Single-ply,SBD,M,
Boys,109.77,2,Leighton Mann,Montgomery Lake Creek,107.5,190.51,127.01,204.12,521.63,Single-ply,SBD,M,
Boys,109.77,3,Zach Shilu,Conroe The Woodlands,107.5,163.29,90.72,170.1,424.11,Single-ply,SBD,M,
Boys,109.77,4,Jude Simpson,Montgomery Lake Creek,102.65,163.29,88.45,170.1,421.84,Single-ply,SBD,M,
Boys,124.74,1,Ben Thomas,Conroe The Woodlands,111.86,156.49,72.57,170.1,399.16,Single-ply,SBD,M,
Boys,139.71,1,Justin Snively,Montgomery,125.65,217.72,147.42,215.46,580.6,Single-ply,SBD,M,
