Division,WeightClassKg,Place,Name,Team,BodyweightKg,Best3SquatKg,Best3BenchKg,Best3DeadliftKg,TotalKg,Equipment,Event,Sex,BirthDate
Girls,44.23,1,Katrina Le,Beaumont West Brook,43.27,122.47,61.23,120.2,303.91,Single-ply,SBD,F,
Girls,44.23,2,Tory Fuller,Montgomery,42.73,74.84,40.82,86.18,201.85,Single-ply,SBD,F,
Girls,44.23,3,Kaylyn Tucker,Alvin,42.37,65.77,24.95,68.04,158.76,Single-ply,SBD,F,
Girls,44.23,4,Maleni Puente,Houston Northbrook,42.27,52.16,27.22,70.31,149.69,Single-ply,SBD,F,
Girls,44.23,5,Ashley Axtell,Manvel,42.55,49.9,34.02,65.77,149.69,Single-ply,SBD,F,
Girls,44.23,6,Lairscey Griffin,Montgomery,40.1,49.9,24.95,61.23,136.08,Single-ply,SBD,F,
Girls,44.23,7,Brianah Schwerdtfeger,Pearland,43.27,45.36,24.95,52.16,122.47,Single-ply,SBD,F,
Girls,44.23,8,Taylor Frampton,Santa Fe,30.93,43.09,20.41,43.09,106.59,Single-ply,SBD,F,
Girls,47.85,1,Andrea Recendez,Alvin,47.45,120.2,54.43,113.4,288.03,Single-ply,SBD,F,
Girls,47.85,2,Chrystal Lease,Clute Brazoswood,46.72,99.79,47.63,115.67,263.08,Single-ply,SBD,F,
Girls,47.85,3,Kelsey Hernandez,Nederland,45.54,102.06,47.63,102.06,251.74,Single-ply,SBD,F,
Girls,47.85,4,Evelyn Popoca,Conroe Caney Creek,47.08,97.52,52.16,102.06,251.74,Single-ply,SBD,F,
Girls,47.85,5,Mara Mather,New Caney,45.63,79.38,54.43,111.13,244.94,Single-ply,SBD,F,
Girls,47.85,6,Stephanie Ferrer,Alvin Shadow Creek,47.54,102.06,38.56,104.33,244.94,Single-ply,SBD,F,
Girls,47.85,7,Isabella Gonzales,Pearland,45.72,99.79,40.82,102.06,242.67,Single-ply,SBD,F,
Girls,47.85,8,Aniya Mithcell,Port Arthur Memorial,46.72,92.99,47.63,99.79,240.4,Single-ply,SBD,F,
Girls,47.85,9,Karli Reeves,Montgomery,47.81,86.18,49.9,102.06,238.14,Single-ply,SBD,F,
Girls,47.85,10,Alana Duong,Nederland,46.9,97.52,40.82,92.99,231.33,Single-ply,SBD,F,
Girls,47.85,11,Haleigh Chapin,Alvin Shadow Creek,46.36,86.18,34.02,83.91,204.12,Single-ply,SBD,F,
Girls,47.85,12,Kylie Davidson,Santa Fe,46.36,72.57,38.56,68.04,179.17,Single-ply,SBD,F,
Girls,47.85,13,Evelyn Duke,Pearland Dawson,45.27,68.04,22.68,63.5,154.22,Single-ply,SBD,F,
Girls,47.85,DQ,Nicole Garza,Beaumont United,46.36,52.16,24.95,,,Single-ply,SBD,F,
Girls,51.94,1,Isabela Recendez,Alvin,51.8,142.88,72.57,127.01,342.46,Single-ply,SBD,F,
Girls,51.94,2,Gracie Cervantes,Santa Fe,50.44,102.06,56.7,102.06,260.82,Single-ply,SBD,F,
Girls,51.94,3,Katelynn Hebert,Port Neches-Groves,50.53,97.52,45.36,104.33,247.21,Single-ply,SBD,F,
Girls,51.94,4,Emily Mika,Dayton,51.62,92.99,40.82,106.59,240.4,Single-ply,SBD,F,
Girls,51.94,5,Tommie Anne Stark,Conroe Woodlands College Park,50.35,79.38,52.16,106.59,238.14,Single-ply,SBD,F,
Girls,51.94,6,Stephanie Lopez,Pearland,50.71,86.18,38.56,108.86,233.6,Single-ply,SBD,F,
Girls,51.94,7,Emily Elizalde,Cleveland,51.53,83.91,38.56,92.99,215.46,Single-ply,SBD,F,
Girls,51.94,8,Amy Heng,Beaumont West Brook,51.53,79.38,38.56,97.52,215.46,Single-ply,SBD,F,
Girls,51.94,9,Jennifer Garcia,Alvin,51.62,79.38,36.29,95.25,210.92,Single-ply,SBD,F,
Girls,51.94,10,Cherish Herring,Beaumont United,51.89,72.57,34.02,97.52,204.12,Single-ply,SBD,F,
Girls,51.94,11,Kendal Andrus,Santa Fe,49.99,74.84,31.75,92.99,199.58,Single-ply,SBD,F,
Girls,51.94,12,Clarissa Cedillo,Alvin,50.89,68.04,38.56,77.11,183.7,Single-ply,SBD,F,
Girls,56.02,1,Hailey Zuniga,Clute Brazoswood,55.34,176.9,70.31,136.08,383.29,Single-ply,SBD,F,
Girls,56.02,2,Hannah Casas,Alvin,55.7,158.76,79.38,124.74,362.87,Single-ply,SBD,F,
Girls,56.02,3,Taylor Lewis,Beaumont West Brook,55.7,120.2,72.57,142.88,335.66,Single-ply,SBD,F,
Girls,56.02,4,Taryn Brunet,Nederland,55.52,127.01,54.43,124.74,306.17,Single-ply,SBD,F,
Girls,56.02,5,Gracie Whitehead,Dayton,54.61,113.4,54.43,120.2,288.03,Single-ply,SBD,F,
Girls,56.02,6,Penelope Robles,Port Neches-Groves,55.07,102.06,43.09,113.4,258.55,Single-ply,SBD,F,
Girls,56.02,7,Ja'Nyah Guillory,Nederland,53.25,111.13,40.82,102.06,254.01,Single-ply,SBD,F,
Girls,56.02,8,Lani Brown,New Caney Porter,54.7,90.72,52.16,106.59,249.48,Single-ply,SBD,F,
Girls,56.02,9,Jacqueline Ruiz,Houston Northbrook,55.97,102.06,47.63,95.25,244.94,Single-ply,SBD,F,
Girls,56.02,10,Noni Simon,Baytown Lee,54.7,90.72,34.02,117.93,242.67,Single-ply,SBD,F,
Girls,56.02,11,Kelsie Deloach,Alvin Shadow Creek,54.7,83.91,38.56,117.93,240.4,Single-ply,SBD,F,
Girls,56.02,12,Allison Godinez,Conroe Caney Creek,52.07,92.99,36.29,90.72,219.99,Single-ply,SBD,F,
Girls,56.02,13,Elaine Elder,Pearland,55.7,81.65,40.82,83.91,206.38,Single-ply,SBD,F,
Girls,56.02,14,Raven Hawley,Galveston Ball,55.34,79.38,34.02,83.91,197.31,Single-ply,SBD,F,
Girls,60.1,1,Jada Romero,Montgomery Lake Creek,57.97,147.42,70.31,149.69,367.41,Single-ply,SBD,F,
Girls,60.1,2,Kaylee Horak,Conroe,57.24,124.74,79.38,142.88,347,Single-ply,SBD,F,
Girls,60.1,3,Dominique Delarosa,Alvin,58.06,142.88,81.65,113.4,337.93,Single-ply,SBD,F,
Girls,60.1,4,Carmela Sanchez,New Caney,59.15,136.08,63.5,138.35,337.93,Single-ply,SBD,F,
Girls,60.1,5,Tina Nguyen,Nederland,59.06,127.01,52.16,115.67,294.84,Single-ply,SBD,F,
Girls,60.1,6,Micaela Jackson,Conroe Woodlands College Park,58.42,111.13,58.97,115.67,285.76,Single-ply,SBD,F,
Girls,60.1,7,Niya Jackson,Beaumont United,58.6,104.33,40.82,131.54,276.69,Single-ply,SBD,F,
Girls,60.1,8,Emari Clark,Conroe Caney Creek,56.61,102.06,52.16,117.93,272.16,Single-ply,SBD,F,
Girls,60.1,9,Jastormia Tarpley,New Caney,58.88,99.79,52.16,120.2,272.16,Single-ply,SBD,F,
Girls,60.1,10,Jalynn Hranicky,Port Neches-Groves,59.42,108.86,54.43,108.86,272.16,Single-ply,SBD,F,
Girls,60.1,11,Nia Baker,Alvin Shadow Creek,57.79,102.06,47.63,115.67,265.35,Single-ply,SBD,F,
Girls,60.1,12,Cynthia Banuelos,New Caney Porter,58.33,115.67,63.5,86.18,265.35,Single-ply,SBD,F,
Girls,60.1,13,Karrington Gerard,Beaumont West Brook,59.6,99.79,49.9,113.4,263.08,Single-ply,SBD,F,
Girls,60.1,14,Bailey Butcher,Dayton,59.87,102.06,58.97,102.06,263.08,Single-ply,SBD,F,
Girls,67.36,1,Camila Recendez,Alvin,63.5,172.37,72.57,154.22,399.16,Single-ply,SBD,F,
Girls,67.36,2,Madison Faith,Conroe Woodlands College Park,66.77,136.08,92.99,138.35,367.41,Single-ply,SBD,F,
Girls,67.36,3,Karissa Betancourt,Santa Fe,66.04,142.88,70.31,127.01,340.19,Single-ply,SBD,F,
Girls,67.36,4,Paris Williams,Beaumont West Brook,65.77,122.47,65.77,147.42,335.66,Single-ply,SBD,F,
Girls,67.36,5,Ashton Rutland,Conroe Caney Creek,62.05,133.81,77.11,113.4,324.32,Single-ply,SBD,F,
Girls,67.36,6,Haley Hughes,Clute Brazoswood,61.33,117.93,68.04,133.81,319.78,Single-ply,SBD,F,
Girls,67.36,7,Kalee Rochinski,Montgomery Lake Creek,66.5,113.4,52.16,145.15,310.71,Single-ply,SBD,F,
Girls,67.36,8,Makenna Mcguire,Santa Fe,63.78,127.01,56.7,124.74,308.44,Single-ply,SBD,F,
Girls,67.36,9,Cyara Eason,Manvel,65.32,106.59,65.77,124.74,297.1,Single-ply,SBD,F,
Girls,67.36,10,Allura Monroe,Pasadena Memorial,65.32,120.2,47.63,124.74,292.57,Single-ply,SBD,F,
Girls,67.36,11,Anaiah Johnson,Beaumont West Brook,64.32,108.86,68.04,111.13,288.03,Single-ply,SBD,F,
Girls,67.36,12,Charlotte Wylde,Conroe Woodlands College Park,60.69,120.2,54.43,111.13,285.76,Single-ply,SBD,F,
Girls,67.36,DQ,Destiny Raymond,Beaumont West Brook,67.22,106.59,56.7,,,Single-ply,SBD,F,
Girls,67.36,DQ,Emily Macias,Baytown Goose Creek Memorial,63.41,127.01,,,,Single-ply,SBD,F,
Girls,75.07,1,Symantha Donaldson,Pearland,68.67,140.61,74.84,129.27,344.73,Single-ply,SBD,F,
Girls,75.07,2,Celeste Salinas,Clute Brazoswood,70.67,145.15,65.77,129.27,340.19,Single-ply,SBD,F,
Girls,75.07,3,Analisa Vargas,Conroe Caney Creek,71.03,129.27,72.57,136.08,337.93,Single-ply,SBD,F,
Girls,75.07,4,Rhylee Shaw,Conroe,68.04,129.27,72.57,124.74,326.59,Single-ply,SBD,F,
Girls,75.07,5,Alondra Reyes,Clute Brazoswood,72.94,138.35,54.43,129.27,322.05,Single-ply,SBD,F,
Girls,75.07,6,Paige Johnson,Pasadena Memorial,70.31,124.74,56.7,136.08,317.51,Single-ply,SBD,F,
Girls,75.07,7,Da'Lea Benton,Beaumont West Brook,73.75,113.4,61.23,138.35,312.98,Single-ply,SBD,F,
Girls,75.07,8,Ysela Vera,Conroe Caney Creek,72.67,127.01,52.16,127.01,306.17,Single-ply,SBD,F,
Girls,75.07,9,Nathaly Ramirez,Alvin,71.21,108.86,56.7,127.01,292.57,Single-ply,SBD,F,
Girls,75.07,10,Kaely Richardson,Pasadena Memorial,73.03,115.67,49.9,127.01,292.57,Single-ply,SBD,F,
Girls,75.07,11,Katelyn Payton,Dayton,72.3,104.33,58.97,127.01,290.3,Single-ply,SBD,F,
Girls,75.07,12,Christabel Bass,Alvin,73.84,124.74,52.16,113.4,290.3,Single-ply,SBD,F,
Girls,75.07,13,Camille Thompson,Beaumont West Brook,67.86,113.4,61.23,111.13,285.76,Single-ply,SBD,F,
Girls,75.07,14,Natalie Garcia,Dayton,71.21,97.52,52.16,120.2,269.89,Single-ply,SBD,F,
Girls,82.33,1,Gabby Bailey,Montgomery Lake Creek,76.02,147.42,79.38,145.15,371.95,Single-ply,SBD,F,
Girls,82.33,2,Emma Pierce,Dayton,80.38,136.08,70.31,147.42,353.8,Single-ply,SBD,F,
Girls,82.33,3,Peyton Jones,Port Neches-Groves,77.29,140.61,56.7,145.15,342.46,Single-ply,SBD,F,
Girls,82.33,4,Alexis Lavergne,Nederland,79.29,147.42,65.77,129.27,342.46,Single-ply,SBD,F,
Girls,82.33,5,Vivian Nguyen,Pearland,81.74,124.74,63.5,151.95,340.19,Single-ply,SBD,F,
Girls,82.33,6,Myla Mosley,Texas City,77.2,149.69,68.04,120.2,337.93,Single-ply,SBD,F,
Girls,82.33,7,Briana Ramos,Pasadena Memorial,82.01,142.88,54.43,136.08,333.39,Single-ply,SBD,F,
Girls,82.33,8,Janice Maldonado,Willis,78.11,142.88,74.84,113.4,331.12,Single-ply,SBD,F,
Girls,82.33,9,Casey Cassidy,Pearland Dawson,82.01,129.27,54.43,136.08,319.78,Single-ply,SBD,F,
Girls,82.33,10,Karen Nobles,Conroe,81.1,127.01,65.77,124.74,317.51,Single-ply,SBD,F,
Girls,82.33,11,Audra Garza,Manvel,82.1,108.86,56.7,117.93,283.5,Single-ply,SBD,F,
Girls,82.33,12,Aliviah Hood,Willis,80.83,111.13,52.16,113.4,276.69,Single-ply,SBD,F,
Girls,82.33,13,Lakota Reynolds,Port Neches-Groves,77.56,90.72,45.36,104.33,240.4,Single-ply,SBD,F,
Girls,82.33,14,Khacie Simien,Beaumont United,75.48,86.18,38.56,113.4,238.14,Single-ply,SBD,F,
Girls,82.33,DQ,Amy Velasco,Port Neches-Groves,77.84,138.35,,,,Single-ply,SBD,F,
Girls,90.04,1,Ana Gonzalez,Conroe,88.63,181.44,88.45,181.44,451.32,Single-ply,SBD,F,
Girls,90.04,2,Sarah Green,Alvin,89.9,170.1,83.91,188.24,442.25,Single-ply,SBD,F,
Girls,90.04,3,Katera Perkins,Beaumont West Brook,86.73,183.7,90.72,165.56,439.98,Single-ply,SBD,F,
Girls,90.04,4,Kaleigha Washington,Beaumont West Brook,89.36,151.95,86.18,167.83,405.97,Single-ply,SBD,F,
Girls,90.04,5,Alinne Flores,Conroe Caney Creek,83.64,163.29,81.65,136.08,381.02,Single-ply,SBD,F,
Girls,90.04,6,Kennedi Williams,Manvel,84.46,131.54,79.38,161.03,371.95,Single-ply,SBD,F,
Girls,90.04,7,Siara Benton,Beaumont West Brook,89.09,129.27,77.11,138.35,344.73,Single-ply,SBD,F,
Girls,90.04,8,Kloee Wells,Dayton,88.81,113.4,79.38,142.88,335.66,Single-ply,SBD,F,
Girls,90.04,9,Diamond Trevino,Dickinson,87.27,145.15,52.16,113.4,310.71,Single-ply,SBD,F,
Girls,90.04,10,Rachel Smith,Willis,87.45,142.88,63.5,102.06,308.44,Single-ply,SBD,F,
Girls,90.04,11,Marcela Trad,Alvin Shadow Creek,87.63,142.88,54.43,108.86,306.17,Single-ply,SBD,F,
Girls,90.04,12,Jonea Lavarez,Alvin Shadow Creek,86.18,117.93,56.7,104.33,278.96,Single-ply,SBD,F,
Girls,90.04,13,Cailyn Elmore,Port Neches-Groves,88.18,102.06,58.97,115.67,276.69,Single-ply,SBD,F,
Girls,90.04,14,Kennedy Bond,Conroe Woodlands College Park,86.91,111.13,43.09,113.4,267.62,Single-ply,SBD,F,
Girls,100.02,1,Trinity Ruiz,Alvin,99.88,219.99,95.25,172.37,487.61,Single-ply,SBD,F,
Girls,100.02,2,Lessly Sandoval,Conroe,92.53,151.95,95.25,161.03,408.23,Single-ply,SBD,F,
Girls,100.02,3,Jennifer Galarza,New Caney Porter,96.89,145.15,83.91,151.95,381.02,Single-ply,SBD,F,
Girls,100.02,4,Savannah Hebert,Conroe Caney Creek,94.98,145.15,77.11,131.54,353.8,Single-ply,SBD,F,
Girls,100.02,5,Brynleigh Curtis,Port Neches-Groves,94.26,136.08,77.11,131.54,344.73,Single-ply,SBD,F,
Girls,100.02,6,Jennifer De Leon #2,Alvin,99.88,149.69,54.43,108.86,312.98,Single-ply,SBD,F,
Girls,100.02,7,Leighanna Thrower,Montgomery,95.62,106.59,70.31,115.67,292.57,Single-ply,SBD,F,
Girls,100.02,8,Ava Rawlins,Galveston Ball,96.98,120.2,47.63,120.2,288.03,Single-ply,SBD,F,
Girls,100.02,9,Viviana Garcia,Conroe,98.88,115.67,61.23,111.13,288.03,Single-ply,SBD,F,
Girls,100.02,10,Kelsey Roundtree,Beaumont United,91.9,113.4,38.56,120.2,272.16,Single-ply,SBD,F,
Girls,100.02,11,America Cerda,Cleveland,93.08,117.93,38.56,104.33,260.82,Single-ply,SBD,F,
Girls,100.02,12,Izabella Pina,Waller,95.8,106.59,45.36,102.06,254.01,Single-ply,SBD,F,
Girls,100.02,DQ,Cydney Griffin,Beaumont West Brook,99.06,161.03,58.97,,,Single-ply,SBD,F,
Girls,117.71,1,Eliana Hernandez,Alvin,113.85,213.19,102.06,176.9,492.15,Single-ply,SBD,F,
Girls,117.71,2,Ashlynn Tapia,Conroe Woodlands College Park,104.33,204.12,113.4,151.95,469.47,Single-ply,SBD,F,
Girls,117.71,3,Vanessa Hughes,Nederland,107.68,172.37,79.38,151.95,403.7,Single-ply,SBD,F,
Girls,117.71,4,Eboni Watkins,Alvin,102.87,151.95,61.23,151.95,365.14,Single-ply,SBD,F,
Girls,117.71,5,Amy Lujan,Conroe,106.68,147.42,81.65,129.27,358.34,Single-ply,SBD,F,
Girls,117.71,6,Diana Gonzalez,Conroe Caney Creek,117.66,131.54,49.9,117.93,299.37,Single-ply,SBD,F,
Girls,117.71,7,Jordan Ochoa,Port Neches-Groves,105.23,122.47,47.63,127.01,297.1,Single-ply,SBD,F,
Girls,117.71,8,Madison Parker,Port Arthur Memorial,100.33,122.47,52.16,102.06,276.69,Single-ply,SBD,F,
Girls,117.71,9,Trishten Herra,Galveston Ball,112.49,113.4,38.56,113.4,265.35,Single-ply,SBD,F,
Girls,117.71+,1,Avari Ford,Willis,149.5,183.7,81.65,149.69,415.04,Single-ply,SBD,F,
Girls,117.71+,2,Laci Ruiz,Alvin,140.52,181.44,79.38,145.15,405.97,Single-ply,SBD,F,
Girls,117.71+,3,Mia Watler,Nederland,122.29,145.15,95.25,131.54,371.95,Single-ply,SBD,F,
Girls,117.71+,4,Rayia Calbert,Beaumont United,130.82,136.08,83.91,140.61,360.61,Single-ply,SBD,F,
Girls,117.71+,5,Tamia Morris,Manvel,128.73,140.61,86.18,129.27,356.07,Single-ply,SBD,F,
Girls,117.71+,6,Deaisha Boone,Dickinson,131.72,145.15,61.23,136.08,342.46,Single-ply,SBD,F,
Girls,117.71+,7,Maya Ruiz,Alvin,117.84,138.35,63.5,117.93,319.78,Single-ply,SBD,F,
Girls,117.71+,8,Kelsey Davis,Port Arthur Memorial,130.82,115.67,56.7,115.67,288.03,Single-ply,SBD,F,
