Division,WeightClassKg,Place,Name,Team,BodyweightKg,Best3SquatKg,Best3BenchKg,Best3DeadliftKg,TotalKg,Equipment,Event,Sex,BirthDate
Boys,55.79,1,Chase Chapa,Port Lavaca Calhoun,54.88,192.78,113.4,224.53,530.7,Single-ply,SBD,M,
Boys,59.87,1,Ceyth Grevey,Victoria East,59.78,167.83,95.25,185.97,449.06,Single-ply,SBD,M,
Boys,59.87,2,Eh Klo Say,Port Lavaca Calhoun,58.97,151.95,92.99,151.95,396.89,Single-ply,SBD,M,
Boys,67.13,1,Jakob Cortez,Port Lavaca Calhoun,64.86,217.72,108.86,222.26,548.85,Single-ply,SBD,M,
Boys,67.13,2,Josh Henry,Victoria St. Joseph,63.96,117.93,97.52,147.42,362.87,Single-ply,SBD,M,
Boys,67.13,3,Jason Carmona,Victoria East,64.41,131.54,72.57,138.35,342.46,Single-ply,SBD,M,
Boys,67.13,4,Carson Van Pelt,Vanderbilt Industrial,64.68,113.4,70.31,127.01,310.71,Single-ply,SBD,M,
Boys,74.84,1,Emanuel Flores,Port Lavaca Calhoun,74.57,156.49,79.38,176.9,412.77,Single-ply,SBD,M,
Boys,74.84,2,Gabe Weaver,Victoria St. Joseph,72.85,133.81,83.91,151.95,369.68,Single-ply,SBD,M,
Boys,74.84,3,Andrew Morris,Victoria St. Joseph,71.03,108.86,63.5,120.2,292.57,Single-ply,SBD,M,
Boys,82.1,1,Jose Raynaga,Port Lavaca Calhoun,80.47,201.85,127.01,201.85,530.7,Single-ply,SBD,M,
Boys,82.1,2,Samuel Torres,Port Lavaca Calhoun,81.83,204.12,133.81,183.7,521.63,Single-ply,SBD,M,
Boys,82.1,3,Thomas Lopez,Victoria St. Joseph,79.74,170.1,86.18,188.24,444.52,Single-ply,SBD,M,
Boys,82.1,4,Jesse Cornish,Vanderbilt Industrial,78.93,165.56,90.72,154.22,410.5,Single-ply,SBD,M,
Boys,82.1,DQ,Randal Delgado,Victoria East,80.38,165.56,102.06,,,Single-ply,SBD,M,
Boys,89.81,1,Tanner Coleman,Victoria St. Joseph,87.54,217.72,136.08,204.12,557.92,Single-ply,SBD,M,
Boys,89.81,2,Pavan Patel,Port Lavaca Calhoun,88,206.38,102.06,226.8,535.24,Single-ply,SBD,M,
Boys,89.81,3,Jordan Lobo,Victoria St. Joseph,87.18,188.24,122.47,185.97,496.68,Single-ply,SBD,M,
Boys,89.81,4,Daniel Martinez,Victoria East,82.64,165.56,92.99,142.88,401.43,Single-ply,SBD,M,
Boys,99.79,1,Ryan Cain,Victoria East,93.35,258.55,115.67,240.4,614.62,Single-ply,SBD,M,
Boys,99.79,2,Alex Flood,Port Lavaca Calhoun,99.38,213.19,129.27,213.19,555.65,Single-ply,SBD,M,
Boys,99.79,3,Hayden Land,Victoria St. Joseph,99.25,208.65,113.4,208.65,530.7,Single-ply,SBD,M,
Boys,99.79,4,Xavier Salazar,Victoria East,93.8,151.95,92.99,195.04,439.98,Single-ply,SBD,M,
Boys,99.79,5,Johnathan Orgis,Victoria East,92.26,138.35,88.45,149.69,376.48,Single-ply,SBD,M,
Boys,109.77,1,Gage Spencer,Port Lavaca Calhoun,109.68,215.46,133.81,192.78,542.04,Single-ply,SBD,M,
Boys,109.77,2,Jesus Herrera,Port Lavaca Calhoun,106.05,188.24,133.81,213.19,535.24,Single-ply,SBD,M,
Boys,109.77,3,Jace Kitchens,Vanderbilt Industrial,100.61,190.51,104.33,185.97,480.81,Single-ply,SBD,M,
Boys,124.74,1,Tristan Bermea,Vanderbilt Industrial,119.93,263.08,183.7,235.87,682.66,Single-ply,SBD,M,
Boys,124.74,2,Nate Beck,Victoria St. Joseph,120.75,231.33,165.56,215.46,612.35,Single-ply,SBD,M,
Boys,139.71,1,Cooper Kliem,Victoria East,126.64,235.87,129.27,176.9,542.04,Single-ply,SBD,M,
Boys,139.71,2,Gabe Medina,Victoria St. Joseph,127.37,156.49,92.99,165.56,415.04,Single-ply,SBD,M,
Boys,139.71,DQ,Avery Flood,Port Lavaca Calhoun,129.91,260.82,,,,Single-ply,SBD,M,
Boys,139.71+,1,Damian Chavez,Port Lavaca Calhoun,143.06,290.3,145.15,204.12,639.57,Single-ply,SBD,M,
