Division,WeightClassKg,Place,Name,Team,BodyweightKg,Best3SquatKg,Best3BenchKg,Best3DeadliftKg,TotalKg,Equipment,Event,Sex,BirthDate
Boys,51.71,1,Dylan McDonald,Abilene Cooper,51.07,106.59,61.23,136.08,303.91,Single-ply,SBD,M,
Boys,51.71,2,Paul Nguyen,Abilene,50.35,111.13,58.97,115.67,285.76,Single-ply,SBD,M,
Boys,55.79,1,Reece Gooding,Abilene Wylie,54.88,142.88,83.91,142.88,369.68,Single-ply,SBD,M,
Boys,55.79,2,Robert Hernandez,Abilene Cooper,55.57,129.27,81.65,154.22,365.14,Single-ply,SBD,M,
Boys,59.87,1,Joseph Hester,Abilene,58.51,129.27,68.04,142.88,340.19,Single-ply,SBD,M,
Boys,67.13,1,Mikei Flye,Abilene Cooper,66.59,185.97,99.79,170.1,455.86,Single-ply,SBD,M,
Boys,67.13,DQ,Landry Carlton,Abilene Wylie,65.68,,,,,Single-ply,SBD,M,
Boys,74.84,1,Noah Beach,Abilene Wylie,73.39,197.31,138.35,210.92,546.58,Single-ply,SBD,M,
Boys,74.84,2,Raul Gamez,Abilene Cooper,73.94,170.1,111.13,174.63,455.86,Single-ply,SBD,M,
Boys,74.84,3,Marcus Gomez,Abilene Cooper,69.99,147.42,70.31,176.9,394.63,Single-ply,SBD,M,
Boys,82.1,1,Austin Baron,Abilene Wylie,80.38,219.99,120.2,217.72,557.92,Single-ply,SBD,M,
Boys,82.1,2,Johnathan Vanwinkle,Abilene Cooper,80.83,199.58,113.4,195.04,508.02,Single-ply,SBD,M,
Boys,82.1,3,Luke Castaneda,Abilene,82.1,204.12,113.4,185.97,503.49,Single-ply,SBD,M,
Boys,82.1,4,Isaiah Salinas,Abilene,78.02,151.95,92.99,174.63,419.57,Single-ply,SBD,M,
Boys,82.1,5,Ben Turnbow,Abilene Wylie,75.48,140.61,83.91,127.01,351.53,Single-ply,SBD,M,
Boys,82.1,DQ,Nathan Tiner,Abilene Wylie,79.56,,,,,Single-ply,SBD,M,
Boys,82.1,DQ,Maison Dickinson,Abilene,82.1,,,,,Single-ply,SBD,M,
Boys,89.81,1,Jacob Deax,Abilene Cooper,88.86,219.99,129.27,242.67,591.94,Single-ply,SBD,M,
Boys,89.81,2,Lorenzo Vasquez,Abilene Cooper,85.59,176.9,117.93,188.24,483.08,Single-ply,SBD,M,
Boys,89.81,3,Caleb Goeddertz,Abilene Wylie,89.72,188.24,97.52,188.24,474,Single-ply,SBD,M,
Boys,99.79,1,Jaxon Camacho,Abilene Wylie,92.99,226.8,133.81,240.4,601.01,Single-ply,SBD,M,
Boys,99.79,2,Tyson Moore,Abilene,92.53,179.17,108.86,195.04,483.08,Single-ply,SBD,M,
Boys,99.79,3,Jackson Wilson,Abilene,91.63,179.17,102.06,192.78,474,Single-ply,SBD,M,
Boys,99.79,4,Kade Kitchens,Abilene Wylie,96.34,174.63,117.93,172.37,464.93,Single-ply,SBD,M,
Boys,109.77,1,Miguel Silva,Abilene Cooper,109.77,226.8,104.33,226.8,557.92,Single-ply,SBD,M,
Boys,109.77,2,Jayden Dimas,Abilene Cooper,108.64,181.44,99.79,185.97,467.2,Single-ply,SBD,M,
Boys,109.77,DQ,Jagger Burnett,Abilene Wylie,103.78,229.06,,,,Single-ply,SBD,M,
Boys,124.74,1,Bradley Byrne,Abilene,113.4,249.48,124.74,231.33,605.55,Single-ply,SBD,M,
Boys,124.74,2,Jamie Rodriguez,Abilene,120.2,258.55,127.01,219.99,605.55,Single-ply,SBD,M,
Boys,124.74,3,Julian Garcia,Abilene,117.03,242.67,138.35,204.12,585.13,Single-ply,SBD,M,
Boys,124.74,4,Zach Killam,Abilene,119.75,235.87,99.79,201.85,537.51,Single-ply,SBD,M,
Boys,124.74,5,Ben Gomez,Abilene,120.2,226.8,92.99,201.85,521.63,Single-ply,SBD,M,
Boys,139.71,1,X'zavier Collins,Abilene Wylie,129.55,276.69,174.63,249.48,700.8,Single-ply,SBD,M,
Boys,139.71,2,Jay Smith #5,Abilene Cooper,135.26,219.99,127.01,195.04,542.04,Single-ply,SBD,M,
Boys,139.71,3,Adrian Hernandez,Abilene,125.65,213.19,104.33,204.12,521.63,Single-ply,SBD,M,
Boys,139.71,4,Agron Gjocaj,Abilene Wylie,131.81,151.95,102.06,170.1,424.11,Single-ply,SBD,M,
Boys,139.71+,DQ,Isaiah Valenzuela,Abilene Cooper,166.83,,,,,Single-ply,SBD,M,
