Division,WeightClassKg,Place,Name,Team,BodyweightKg,Best3SquatKg,Best3BenchKg,Best3DeadliftKg,TotalKg,Equipment,Event,Sex,BirthDate
Girls,47.85,1,Guinevere Young,Elkhart,45.27,86.18,52.16,102.06,240.4,Single-ply,SBD,F,
Girls,47.85,2,Breeana Echols,Mabank,44.72,68.04,40.82,74.84,183.7,Single-ply,SBD,F,
Girls,51.94,1,Tristan Dykes,Brownsboro,49.26,142.88,72.57,108.86,324.32,Single-ply,SBD,F,
Girls,51.94,2,Jordan Stephens,Elkhart,49.8,115.67,68.04,108.86,292.57,Single-ply,SBD,F,
Girls,51.94,DQ,Taylor Soong,Brownsboro,48.44,,,,,Single-ply,SBD,F,
Girls,56.02,1,Madilynn Essary,Brownsboro,55.16,136.08,74.84,136.08,347,Single-ply,SBD,F,
Girls,56.02,2,Victoria Shephard,Mabank,54.16,111.13,65.77,122.47,299.37,Single-ply,SBD,F,
Girls,56.02,DQ,Savannah Williams,Brownsboro,55.79,,,,,Single-ply,SBD,F,
Girls,60.1,1,MyShayla Owens,Palestine Westwood,56.88,120.2,56.7,127.01,303.91,Single-ply,SBD,F,
Girls,60.1,2,Mia Bacy,Mabank,56.15,117.93,68.04,111.13,297.1,Single-ply,SBD,F,
Girls,60.1,3,Peyton Nolen,Mabank,57.79,117.93,58.97,120.2,297.1,Single-ply,SBD,F,
Girls,60.1,4,Sarah Mann,Elkhart,59.96,122.47,65.77,108.86,297.1,Single-ply,SBD,F,
Girls,60.1,5,Kinley Haas,Elkhart,60.06,120.2,58.97,115.67,294.84,Single-ply,SBD,F,
Girls,60.1,6,Laynie Gangross,Brownsboro,58.42,102.06,58.97,124.74,285.76,Single-ply,SBD,F,
Girls,60.1,7,Ruby Aguirre,Elkhart,58.51,122.47,65.77,92.99,281.23,Single-ply,SBD,F,
Girls,60.1,8,Chenoa Watson,Elkhart,58.24,102.06,43.09,104.33,249.48,Single-ply,SBD,F,
Girls,60.1,9,Tara Herod,Elkhart,58.24,81.65,34.02,88.45,204.12,Single-ply,SBD,F,
Girls,67.36,1,Haley Lee,Brownsboro,61.14,165.56,79.38,142.88,387.82,Single-ply,SBD,F,
Girls,67.36,2,Trinity Hawkins,Brownsboro,63.96,117.93,81.65,113.4,312.98,Single-ply,SBD,F,
Girls,67.36,3,Lindsey Bersano,Brownsboro,64.77,99.79,77.11,120.2,297.1,Single-ply,SBD,F,
Girls,67.36,4,Ashton Wallace,Mabank,63.32,108.86,36.29,90.72,235.87,Single-ply,SBD,F,
Girls,67.36,5,Soynoia Davis,Palestine Westwood,65.68,81.65,47.63,97.52,226.8,Single-ply,SBD,F,
Girls,75.07,1,Mae Lewis,Brownsboro,73.57,149.69,79.38,151.95,381.02,Single-ply,SBD,F,
Girls,75.07,2,Lauren Simpson,Elkhart,73.03,163.29,70.31,145.15,378.75,Single-ply,SBD,F,
Girls,75.07,3,Baylee Xayavong,Mabank,67.68,115.67,63.5,124.74,303.91,Single-ply,SBD,F,
Girls,75.07,4,Mallorie Friday,Elkhart,71.12,124.74,61.23,111.13,297.1,Single-ply,SBD,F,
Girls,75.07,5,Kendall Lyon,Mabank,71.03,113.4,61.23,108.86,283.5,Single-ply,SBD,F,
Girls,75.07,6,Rylee Yates,Palestine Westwood,73.66,108.86,54.43,111.13,274.42,Single-ply,SBD,F,
Girls,75.07,7,Morgan Yates,Palestine Westwood,74.03,99.79,47.63,92.99,240.4,Single-ply,SBD,F,
Girls,75.07,8,Tylynn Tyner,Mabank,74.48,79.38,54.43,95.25,229.06,Single-ply,SBD,F,
Girls,75.07,9,Shelby Lhear,Brownsboro,68.76,83.91,45.36,97.52,226.8,Single-ply,SBD,F,
Girls,75.07,10,Alyssa Alcorta,Elkhart,71.44,74.84,38.56,92.99,206.38,Single-ply,SBD,F,
Girls,82.33,1,Hailey Woods,Mabank,80.38,131.54,65.77,122.47,319.78,Single-ply,SBD,F,
Girls,82.33,2,Elora Purtee,Brownsboro,80.1,113.4,68.04,115.67,297.1,Single-ply,SBD,F,
Girls,82.33,3,Kelsey Sims,Brownsboro,82.28,86.18,58.97,95.25,240.4,Single-ply,SBD,F,
Girls,90.04,1,Lillianna Purtee,Brownsboro,87.27,127.01,70.31,129.27,326.59,Single-ply,SBD,F,
Girls,90.04,2,Camila Martinez,Palestine Westwood,86.82,120.2,61.23,117.93,299.37,Single-ply,SBD,F,
Girls,90.04,3,Kylie Clamon,Mabank,83.46,111.13,68.04,111.13,290.3,Single-ply,SBD,F,
Girls,90.04,4,Skiler Pallett,Mabank,83.46,120.2,47.63,106.59,274.42,Single-ply,SBD,F,
Girls,90.04,5,Addy Gibba,Mabank,86,108.86,47.63,106.59,263.08,Single-ply,SBD,F,
