Division,WeightClassKg,Place,Name,Team,BodyweightKg,Best3SquatKg,Best3BenchKg,Best3DeadliftKg,TotalKg,Equipment,Event,Sex,BirthDate
Boys,51.71,1,Sebastian Urteaga,Eustace,50.17,117.93,65.77,120.2,303.91,Single-ply,SBD,M,
Boys,55.79,1,Trace Woodruff,Crandall,53.25,104.33,70.31,129.27,303.91,Single-ply,SBD,M,
Boys,59.87,1,Aaron Neal,Eustace,56.25,108.86,68.04,142.88,319.78,Single-ply,SBD,M,
Boys,67.13,1,Logan Baker,Eustace,63.87,170.1,90.72,,260.82,Single-ply,SB,M,
Boys,74.84,1,Jabarr Mumphrey,Crandall,70.85,142.88,92.99,151.95,387.82,Single-ply,SBD,M,
Boys,74.84,2,Kase Mumphrey,Crandall,69.94,138.35,90.72,147.42,376.48,Single-ply,SBD,M,
Boys,74.84,3,Vilmer Zamarron,Crandall,73.84,111.13,68.04,131.54,310.71,Single-ply,SBD,M,
Boys,74.84,3,Jadon Hendley,Eustace,73.3,102.06,61.23,124.74,288.03,Single-ply,SBD,M,
Boys,74.84,4,Jamison Starrett,Crandall,68.76,83.91,52.16,111.13,247.21,Single-ply,SBD,M,
Boys,82.1,1,Cameron Wing,Eustace,76.84,170.1,102.06,172.37,444.52,Single-ply,SBD,M,
Boys,82.1,2,Markel Robinson,Crandall,76.84,124.74,83.91,151.95,360.61,Single-ply,SBD,M,
Boys,82.1,4,Zachary Swasso,Eustace,75.75,90.72,56.7,108.86,256.28,Single-ply,SBD,M,
Boys,89.81,1,Reggie Williams,Crandall,86.27,149.69,111.13,183.7,444.52,Single-ply,SBD,M,
Boys,89.81,2,Wilfred Bowers,Eustace,83.73,111.13,77.11,104.33,292.57,Single-ply,SBD,M,
Boys,99.79,1,Gabriel Rudman,Eustace,90.45,145.15,86.18,170.1,401.43,Single-ply,SBD,M,
Boys,99.79,2,Tommy McLaughlin,Crandall,94.89,108.86,68.04,133.81,310.71,Single-ply,SBD,M,
Boys,109.77,1,David Omosigho,Crandall,104.69,197.31,142.88,238.14,578.33,Single-ply,SBD,M,
Boys,124.74,1,Cody Byrd,Eustace,111.22,163.29,97.52,176.9,437.72,Single-ply,SBD,M,
Boys,124.74,2,Ryan Faulk,Crandall,124.1,136.08,77.11,145.15,358.34,Single-ply,SBD,M,
Boys,124.74,3,Dylan Gray,Crandall,115.94,92.99,52.16,142.88,288.03,Single-ply,SBD,M,
