Place,Name,BirthYear,Country,BodyweightKg,Bench1Kg,Bench2Kg,Bench3Kg,Best3BenchKg,WeightClassKg,Sex,CyrillicName,Event,TotalKg,Equipment,Division
1,Anzhelika Sudakova,1995,Russia,46.95,45,-50,-50,45,47,F,Анжелика Судакова,B,45,Raw,Open
2,Kira Seytbaeva,1995,Russia,46,-30,32.5,35,35,47,F,Кира Сейтбаева,B,35,Raw,Open
1,Svetlana Popova,1981,Russia,51.8,65,70,72.5,72.5,52,F,Светлана Попова,B,72.5,Raw,Open
1,Viktoriya Lebedeva,1974,Russia,56.05,77.5,80,82.5,82.5,57,F,Виктория Лебедева,B,82.5,Raw,Open
2,Anastasiya Sheveleva,1989,Russia,56.85,82.5,-87.5,-87.5,82.5,57,F,Анастасия Шевелева,B,82.5,Raw,Open
3,Anna Sundetova,1975,Russia,56.95,55,-60,-60,55,57,F,Анна Сундетова,B,55,Raw,Open
1,Yuliya Speranskaya,1980,Russia,60.45,100,105,110,110,63,F,Юлия Сперанская,B,110,Raw,Open
2,Tatyana Solovyeva,1984,Russia,60.7,45,50,-55,50,63,F,Татьяна Соловьева,B,50,Raw,Open
1,Mariya Volkova,1972,Russia,69.4,90,97.5,100,100,72,F,Мария Волкова,B,100,Raw,Open
2,Mariya Monakhova,1981,Russia,68.15,82.5,87.5,90,90,72,F,Мария Монахова,B,90,Raw,Open
3,Natalya Bolozneva,1973,Russia,69.3,52.5,-57.5,-57.5,52.5,72,F,Наталья Болознева,B,52.5,Raw,Open
1,Alla Pugovkina,1975,Russia,81.75,90,95,100,100,84,F,Алла Пуговкина,B,100,Raw,Open
1,Svetlana Sema,1976,Russia,88.25,90,100,-105,100,84+,F,Светлана Сема,B,100,Raw,Open
1,Sergey Novikov,1993,Russia,54.7,87.5,,,87.5,59,M,Сергей Новиков,B,87.5,Raw,Open
1,Aleksandr Potapov,1983,Russia,60.05,122.5,127.5,-132.5,127.5,66,M,Александр Потапов,B,127.5,Raw,Open
2,Ilya Yunyushkin,1985,Russia,66,100,107.5,-115,107.5,66,M,Илья Юнюшкин,B,107.5,Raw,Open
DQ,Sergey Myagkiy,1986,Russia,60.25,-105,-105,-105,,66,M,Сергей Мягкий,B,,Raw,Open
1,Evgeniy Ryzhikh,1985,Russia,74,137.5,142.5,147.5,147.5,74,M,Евгений Рыжих,B,147.5,Raw,Open
2,Aleksey Tarasov,1985,Russia,68.25,110,120,127.5,127.5,74,M,Алексей Тарасов,B,127.5,Raw,Open
1,Aleksey Denisov,1975,Russia,82.35,157.5,162.5,167.5,167.5,83,M,Алексей Денисов,B,167.5,Raw,Open
2,Ruslan Pelin,1982,Russia,82.05,-155,155,157.5,157.5,83,M,Руслан Пелин,B,157.5,Raw,Open
3,Ilya Simakov,1993,Russia,82.45,150,155,-160,155,83,M,Илья Симаков,B,155,Raw,Open
4,Leonid Ekimov,1981,Russia,80.7,150,-152.5,-155,150,83,M,Леонид Екимов,B,150,Raw,Open
5,Dmitriy Naumenko,1985,Russia,79.5,135,-142.5,-142.5,135,83,M,Дмитрий Науменко,B,135,Raw,Open
6,Anatoliy Rylov,1986,Russia,82,110,-115,115,115,83,M,Анатолий Рылов,B,115,Raw,Open
1,Sergey Speranskiy,1975,Russia,92,200,205,210,210,93,M,Сергей Сперанский,B,210,Raw,Open
2,Aleksey Ozerov,1983,Russia,92.3,190,195,200,200,93,M,Алексей Озеров,B,200,Raw,Open
3,Aleksandr Tremasov,1987,Russia,92.65,162.5,167.5,170,170,93,M,Александр Тремасов,B,170,Raw,Open
4,Nikolay Malov,1985,Russia,90.55,162.5,-170,-170,162.5,93,M,Николай Малов,B,162.5,Raw,Open
5,Denis Podvizhnoy,1977,Russia,90.85,160,-165,-165,160,93,M,Денис Подвижной,B,160,Raw,Open
6,Valeriy Melnik #2,1974,Russia,89.7,140,155,-162.5,155,93,M,Валерий Мельник,B,155,Raw,Open
7,Aleksey Astashov,1987,Russia,88.85,130,-140,-140,130,93,M,Алексей Асташов,B,130,Raw,Open
8,Ivan Fidorinov,1985,Russia,83.9,110,117.5,-125,117.5,93,M,Иван Фидоринов,B,117.5,Raw,Open
1,Dmitriy Solodyuk,1978,Russia,96.85,192.5,200,-205,200,105,M,Дмитрий Солодюк,B,200,Raw,Open
2,Aleksandr Zhachenkov,1981,Russia,94.55,185,192.5,-202.5,192.5,105,M,Александр Жаченков,B,192.5,Raw,Open
3,Aleksey Apostolov,1986,Russia,99.05,-177.5,177.5,180,180,105,M,Алексей Апостолов,B,180,Raw,Open
4,Andrey Belyaev #2,1980,Russia,102.2,155,165,172.5,172.5,105,M,Андрей Беляев,B,172.5,Raw,Open
5,Aleksandr Chulkov,1989,Russia,101.2,160,-170,-170,160,105,M,Александр Чулков,B,160,Raw,Open
1,Ivan Danilenko,1981,Russia,109.2,220,230,237.5,237.5,120,M,Иван Даниленко,B,237.5,Raw,Open
2,Aleksandr Sarychev,1974,Russia,111.35,185,195,-202.5,195,120,M,Александр Сарычев,B,195,Raw,Open
3,Vladimir Kosmachev,1973,Russia,109.7,170,180,-185,180,120,M,Владимир Космачев,B,180,Raw,Open
4,Petr Davydov,1985,Russia,111.7,180,-187.5,-190,180,120,M,Петр Давыдов,B,180,Raw,Open
5,Arkadiy Uryvaev,1976,Russia,117.35,170,180,-187.5,180,120,M,Аркадий Урываев,B,180,Raw,Open
6,Aleksandr Gusev,1987,Russia,105.9,150,160,-170,160,120,M,Александр Гусев,B,160,Raw,Open
DQ,Sergey Ustinov,1988,Russia,118.4,-170,-170,-170,,120,M,Сергей Устинов,B,,Raw,Open
1,Evgeniy Spichev,1981,Russia,121.55,190,200,-207.5,200,120+,M,Евгений Спичев,B,200,Raw,Open
2,Aleksandr Chayka,1984,Russia,180,170,175,-180,175,120+,M,Александр Чайка,B,175,Raw,Open
