Division,WeightClassKg,Place,Name,Team,BodyweightKg,Best3SquatKg,Best3BenchKg,Best3DeadliftKg,TotalKg,Equipment,Event,Sex,BirthDate
Boys,51.71,1,Joe Gaytan,Donna,50.8,183.7,104.33,190.51,478.54,Single-ply,SBD,M,
Boys,51.71,2,Enoch Solis,Weslaco,49.8,185.97,108.86,170.1,464.93,Single-ply,SBD,M,
Boys,51.71,3,Tristan Villarreal,Donna North,51.71,151.95,102.06,181.44,435.45,Single-ply,SBD,M,
Boys,51.71,4,Julian Gonzalez,Weslaco,51.71,154.22,79.38,156.49,390.09,Single-ply,SBD,M,
Boys,51.71,5,Damian Reyna,Edinburg,50.17,142.88,88.45,154.22,385.55,Single-ply,SBD,M,
Boys,51.71,6,Hector DeLeon,Edinburg,51.71,127.01,83.91,136.08,347,Single-ply,SBD,M,
Boys,51.71,7,Adolfo Segura,Pharr Valley View,49.35,117.93,52.16,127.01,297.1,Single-ply,SBD,M,
Boys,55.79,1,Luis Cavazos,Donna North,55.79,199.58,120.2,192.78,512.56,Single-ply,SBD,M,
Boys,55.79,2,Fabian Garcia,Edinburg Idea College Prep,52.89,170.1,113.4,174.63,458.13,Single-ply,SBD,M,
Boys,55.79,3,Richard Rodriguez,Edinburg,54.7,158.76,88.45,170.1,417.3,Single-ply,SBD,M,
Boys,55.79,4,Zuriel Garcia,Pharr Valley View,55.16,131.54,104.33,163.29,399.16,Single-ply,SBD,M,
Boys,55.79,5,Gabriel Chavez,Lyford,55.7,142.88,68.04,156.49,367.41,Single-ply,SBD,M,
Boys,55.79,6,Isaak Prieto,Lyford,55.07,122.47,72.57,136.08,331.12,Single-ply,SBD,M,
Boys,55.79,7,Joseph Oliva,Donna,53.07,117.93,68.04,120.2,306.17,Single-ply,SBD,M,
Boys,59.87,1,Fernando Martinez #2,Weslaco,59.87,226.8,120.2,201.85,548.85,Single-ply,SBD,M,
Boys,59.87,2,Daniel Ochoa,Harlingen South,58.06,172.37,120.2,192.78,485.34,Single-ply,SBD,M,
Boys,59.87,3,Gabriel Perez,Donna North,59.87,138.35,88.45,181.44,408.23,Single-ply,SBD,M,
Boys,59.87,4,Joey Mireles,Edinburg Quest College Prep,59.69,138.35,86.18,174.63,399.16,Single-ply,SBD,M,
Boys,59.87,5,Jason Ybarra,Edinburg Idea College Prep,58.97,149.69,61.23,151.95,362.87,Single-ply,SBD,M,
Boys,59.87,6,Jose Salinas,Edinburg,59.24,102.06,63.5,115.67,281.23,Single-ply,SBD,M,
Boys,67.13,1,Tony Lopez,Donna North,66.68,226.8,120.2,217.72,564.72,Single-ply,SBD,M,
Boys,67.13,2,Tyler McClaugherty,Lyford,65.68,217.72,102.06,204.12,523.9,Single-ply,SBD,M,
Boys,67.13,3,Jonathan Ramirez,Donna,64.86,183.7,117.93,183.7,485.34,Single-ply,SBD,M,
Boys,67.13,4,Robert Solis,Edinburg Economedes,66.5,161.03,97.52,226.8,485.34,Single-ply,SBD,M,
Boys,67.13,5,Marcus Saenz,Weslaco,65.5,183.7,108.86,167.83,460.4,Single-ply,SBD,M,
Boys,67.13,6,Joseph Navarro,Edinburg Vela,65.86,165.56,102.06,183.7,451.32,Single-ply,SBD,M,
Boys,67.13,7,Andrew Ruiz,Santa Rosa,65.86,183.7,90.72,167.83,442.25,Single-ply,SBD,M,
Boys,67.13,8,Carlos Guzman,Edinburg Vela,66.86,151.95,113.4,161.03,426.38,Single-ply,SBD,M,
Boys,67.13,9,Valente Rosas,Lyford,67.13,183.7,99.79,142.88,426.38,Single-ply,SBD,M,
Boys,67.13,10,Carl Bridges,Santa Rosa,65.86,158.76,92.99,147.42,399.16,Single-ply,SBD,M,
Boys,67.13,11,Marcus Suarez,San Benito,63.96,111.13,68.04,142.88,322.05,Single-ply,SBD,M,
Boys,67.13,12,Esai Pacheco,Edinburg Vela,64.68,106.59,79.38,136.08,322.05,Single-ply,SBD,M,
Boys,67.13,13,Andres Mireles,Edinburg Quest College Prep,60.96,113.4,81.65,120.2,315.25,Single-ply,SBD,M,
Boys,67.13,DQ,Jose Soto,Edinburg Economedes,62.14,,,,,Single-ply,SBD,M,
Boys,74.84,1,Marcus Yzaguirre,Donna,73.03,281.23,154.22,240.4,675.85,Single-ply,SBD,M,
Boys,74.84,2,Alex Benavides,Donna North,74.75,233.6,151.95,219.99,605.55,Single-ply,SBD,M,
Boys,74.84,3,Sergio Lerma,Weslaco,74.39,258.55,106.59,235.87,601.01,Single-ply,SBD,M,
Boys,74.84,4,Miguel Castillo,Edinburg Vela,74.21,238.14,138.35,215.46,591.94,Single-ply,SBD,M,
Boys,74.84,5,Antonio Vasquez,Edinburg Quest College Prep,74.48,219.99,117.93,240.4,578.33,Single-ply,SBD,M,
Boys,74.84,6,Eduardo Mujica,Edinburg,72.57,210.92,151.95,206.38,569.26,Single-ply,SBD,M,
Boys,74.84,7,Alan Olvera,Edinburg Economedes,70.58,206.38,136.08,215.46,557.92,Single-ply,SBD,M,
Boys,74.84,8,Juan Garza,Edinburg,74.21,210.92,140.61,204.12,555.65,Single-ply,SBD,M,
Boys,74.84,9,Jesse Leal,Edinburg Economedes,74.48,174.63,122.47,226.8,523.9,Single-ply,SBD,M,
Boys,74.84,10,Devon Mendoza,Lyford,68.49,181.44,99.79,181.44,462.66,Single-ply,SBD,M,
Boys,74.84,11,Michael Thompson,Edinburg Vela,70.94,161.03,92.99,204.12,458.13,Single-ply,SBD,M,
Boys,74.84,12,Austin Alfaro,Harlingen,69.85,161.03,127.01,158.76,446.79,Single-ply,SBD,M,
Boys,74.84,13,Ramon Castro,Lyford,70.94,170.1,102.06,174.63,446.79,Single-ply,SBD,M,
Boys,74.84,14,Matt Tejeda,Edinburg,71.76,151.95,97.52,183.7,433.18,Single-ply,SBD,M,
Boys,74.84,15,Pedro Martinez,San Benito,74.3,172.37,79.38,163.29,415.04,Single-ply,SBD,M,
Boys,74.84,16,Rudy Hernandez,San Benito,69.13,142.88,90.72,147.42,381.02,Single-ply,SBD,M,
Boys,74.84,17,Skyler Alaniz,Santa Rosa,73.75,133.81,88.45,158.76,381.02,Single-ply,SBD,M,
Boys,82.1,1,John Bustos,Donna North,82.1,256.28,142.88,219.99,619.15,Single-ply,SBD,M,
Boys,82.1,2,Jesus Sepulveda,Edinburg Economedes,75.93,231.33,158.76,206.38,596.47,Single-ply,SBD,M,
Boys,82.1,3,Hector Avalos,San Benito,76.48,213.19,133.81,204.12,551.11,Single-ply,SBD,M,
Boys,82.1,4,Oliver Sanchez,Donna,81.65,219.99,124.74,188.24,532.97,Single-ply,SBD,M,
Boys,82.1,5,Jj Mendoza,Santa Rosa,79.74,213.19,106.59,197.31,517.1,Single-ply,SBD,M,
Boys,82.1,6,Chris Delatorre,Pharr Valley View,75.57,188.24,113.4,201.85,503.49,Single-ply,SBD,M,
Boys,82.1,7,Brandon Farias,San Benito,81.92,183.7,127.01,183.7,494.42,Single-ply,SBD,M,
Boys,82.1,DQ,Anthony Villarreal,Pharr Valley View,78.11,174.63,92.99,,,Single-ply,SBD,M,
Boys,89.81,1,Peyton Knaab,Weslaco,86.27,247.21,161.03,254.01,662.24,Single-ply,SBD,M,
Boys,89.81,2,Aric Singleterry,Donna,89.36,249.48,149.69,208.65,607.81,Single-ply,SBD,M,
Boys,89.81,3,Miguel Vasquez,Donna North,88.99,231.33,111.13,240.4,582.87,Single-ply,SBD,M,
Boys,89.81,4,Luis Bautista,Pharr Valley View,88.36,208.65,138.35,226.8,573.79,Single-ply,SBD,M,
Boys,89.81,5,Martin Rabanales,Edinburg Quest College Prep,86,240.4,120.2,206.38,566.99,Single-ply,SBD,M,
Boys,89.81,6,Nathaniel Marfil,Harlingen,85,165.56,129.27,195.04,489.88,Single-ply,SBD,M,
Boys,89.81,7,Enrique Gracia,Pharr Valley View,85.46,172.37,106.59,190.51,469.47,Single-ply,SBD,M,
Boys,89.81,8,Jorge Terrazas,Santa Rosa,87.09,181.44,92.99,192.78,467.2,Single-ply,SBD,M,
Boys,89.81,9,Caleb Garza,Santa Rosa,89.81,174.63,106.59,170.1,451.32,Single-ply,SBD,M,
Boys,89.81,10,Brave Munoz,Santa Rosa,83.01,154.22,88.45,163.29,405.97,Single-ply,SBD,M,
Boys,89.81,DQ,Seth DeLeon,San Benito,83.55,199.58,133.81,,,Single-ply,SBD,M,
Boys,89.81,DQ,Christian Garcia,Lyford,88.81,192.78,117.93,,,Single-ply,SBD,M,
Boys,99.79,1,Larry Strickland,Weslaco,92.17,308.44,149.69,272.16,730.28,Single-ply,SBD,M,
Boys,99.79,2,Tony Gandaria,Donna North,99.7,274.42,188.24,249.48,712.14,Single-ply,SBD,M,
Boys,99.79,3,Gerardo Sifuentes,Edinburg Economedes,96.98,235.87,138.35,229.06,603.28,Single-ply,SBD,M,
Boys,99.79,4,Jacob Olivo,Donna,98.88,231.33,147.42,213.19,591.94,Single-ply,SBD,M,
Boys,99.79,5,Sebastian Perez,Lyford,94.17,226.8,122.47,197.31,546.58,Single-ply,SBD,M,
Boys,99.79,6,Robert Osegueda,Harlingen,91.99,183.7,133.81,215.46,532.97,Single-ply,SBD,M,
Boys,99.79,7,Ruben Barrientes,Edinburg,96.16,226.8,142.88,156.49,526.17,Single-ply,SBD,M,
Boys,99.79,8,Andres Normendez,Pharr Valley View,91.08,176.9,120.2,208.65,505.76,Single-ply,SBD,M,
Boys,99.79,9,Noah Gonzalez,Harlingen,96.25,199.58,133.81,165.56,498.95,Single-ply,SBD,M,
Boys,99.79,10,Alejandro Lopez,Monte Alto,91.63,190.51,111.13,174.63,476.27,Single-ply,SBD,M,
Boys,99.79,11,Carlos Martinez,Lyford,94.62,181.44,99.79,192.78,474,Single-ply,SBD,M,
Boys,99.79,12,David Jeremy Lopez,Harlingen,99.16,165.56,120.2,183.7,469.47,Single-ply,SBD,M,
Boys,99.79,13,Roberto Zepeda,Edinburg Economedes,93.71,140.61,95.25,183.7,419.57,Single-ply,SBD,M,
Boys,99.79,14,Adam Morris,Harlingen South,96.98,136.08,90.72,163.29,390.09,Single-ply,SBD,M,
Boys,99.79,DQ,Arturo Hernandez,San Benito,99.79,210.92,124.74,,,Single-ply,SBD,M,
Boys,99.79,DQ,Justin Valdez,Edinburg Vela,98.61,265.35,133.81,,,Single-ply,SBD,M,
Boys,109.77,1,Gabriel Salinas,Donna,109.32,324.32,195.04,272.16,791.52,Single-ply,SBD,M,
Boys,109.77,2,Antonio Banda,Donna,108.41,317.51,183.7,235.87,737.09,Single-ply,SBD,M,
Boys,109.77,3,Valentin Sanchez,Donna North,105.6,283.5,151.95,244.94,680.39,Single-ply,SBD,M,
Boys,109.77,4,Rick Rangel,Donna North,105.32,263.08,163.29,240.4,666.78,Single-ply,SBD,M,
Boys,109.77,5,Joseph Guerra,Edinburg Economedes,104.87,251.74,156.49,254.01,662.24,Single-ply,SBD,M,
Boys,109.77,6,Nick Rojas,Donna,107.05,267.62,161.03,213.19,641.83,Single-ply,SBD,M,
Boys,109.77,7,Erasmo Garces,Weslaco,102.97,231.33,154.22,247.21,632.76,Single-ply,SBD,M,
Boys,109.77,8,Bryan Lopez,San Benito,101.6,213.19,142.88,215.46,571.53,Single-ply,SBD,M,
Boys,109.77,9,Adolfo Hernandez,Harlingen,103.24,183.7,129.27,226.8,539.77,Single-ply,SBD,M,
Boys,109.77,10,Nathan Huerta,Harlingen,103.33,183.7,129.27,213.19,526.17,Single-ply,SBD,M,
Boys,109.77,11,Chris Delgado,Pharr Valley View,105.41,195.04,142.88,181.44,519.36,Single-ply,SBD,M,
Boys,109.77,12,Hector Navarez,Pharr Valley View,105.05,167.83,113.4,192.78,474,Single-ply,SBD,M,
Boys,109.77,13,Isaac Torres,Harlingen South,106.32,151.95,129.27,183.7,464.93,Single-ply,SBD,M,
Boys,109.77,14,William Hoelscher,Harlingen South,106.87,158.76,97.52,174.63,430.91,Single-ply,SBD,M,
Boys,109.77,15,Ricardo De Leon,Edinburg Economedes,107.05,163.29,102.06,163.29,428.64,Single-ply,SBD,M,
Boys,109.77,16,Emmanuel Cepeda,Lyford,105.05,249.48,165.56,,415.04,Single-ply,SB,M,
Boys,109.77,17,Martin Alvarez,Harlingen South,105.78,158.76,88.45,165.56,412.77,Single-ply,SBD,M,
Boys,124.74,1,Roland Morales,Weslaco,122.29,285.76,190.51,244.94,721.21,Single-ply,SBD,M,
Boys,124.74,2,Joseph Garza,San Benito,110.59,283.5,158.76,260.82,703.07,Single-ply,SBD,M,
Boys,124.74,3,Ryan Garcia,Edinburg Idea College Prep,124.28,283.5,147.42,272.16,703.07,Single-ply,SBD,M,
Boys,124.74,4,Darien Castillo,Donna,123.38,272.16,163.29,229.06,664.51,Single-ply,SBD,M,
Boys,124.74,5,Thomas Santillan,Weslaco,124.38,285.76,145.15,233.6,664.51,Single-ply,SBD,M,
Boys,124.74,6,Abisai Tijerina,Edinburg Economedes,119.93,254.01,133.81,242.67,630.49,Single-ply,SBD,M,
Boys,124.74,7,Hayden Mann,Harlingen South,114.58,231.33,142.88,226.8,601.01,Single-ply,SBD,M,
Boys,124.74,8,Guadalupe Vega,Edinburg,120.56,210.92,154.22,226.8,591.94,Single-ply,SBD,M,
Boys,124.74,9,Abinadi Rosas,Harlingen,119.2,183.7,142.88,206.38,532.97,Single-ply,SBD,M,
Boys,124.74,10,Francisco Bazaldua,Harlingen South,117.12,174.63,149.69,163.29,487.61,Single-ply,SBD,M,
Boys,124.74,11,Amadeo Sanchez,Edinburg,115.48,185.97,149.69,145.15,480.81,Single-ply,SBD,M,
Boys,124.74+,1,Carlos Pineda,Donna,138.35,328.85,172.37,244.94,746.16,Single-ply,SBD,M,
Boys,124.74+,2,Raul Martinez,Weslaco,129.09,301.64,183.7,240.4,725.75,Single-ply,SBD,M,
Boys,124.74+,3,Genaro Paez,Edinburg,149.5,278.96,167.83,244.94,691.73,Single-ply,SBD,M,
Boys,124.74+,4,Juan Mendoza,Harlingen South,150.5,242.67,161.03,254.01,657.71,Single-ply,SBD,M,
Boys,124.74+,5,Jose Resendez,Donna North,129.5,269.89,142.88,217.72,630.49,Single-ply,SBD,M,
Boys,124.74+,6,Jon Paul Elizondo,San Benito,130.91,254.01,158.76,170.1,582.87,Single-ply,SBD,M,
Boys,124.74+,7,Ruben Almendarez,Harlingen,136.8,219.99,142.88,215.46,578.33,Single-ply,SBD,M,
Boys,124.74+,8,Willy Vasquez,Santa Rosa,139.98,226.8,122.47,226.8,576.06,Single-ply,SBD,M,
Boys,124.74+,9,Marco Gomez,Edinburg Vela,129.55,215.46,138.35,206.38,560.19,Single-ply,SBD,M,
Boys,124.74+,10,Caleb Davis,Harlingen South,139.07,204.12,165.56,185.97,555.65,Single-ply,SBD,M,
Boys,124.74+,11,Dexter Delgado,Harlingen South,148.96,195.04,156.49,190.51,542.04,Single-ply,SBD,M,
Boys,124.74+,12,Ty Mattingly,Harlingen South,157.49,158.76,113.4,149.69,421.84,Single-ply,SBD,M,
Boys,124.74+,DQ,Fernando Gonzalez,San Benito,157.67,,,,,Single-ply,SBD,M,
