Division,WeightClassKg,Place,Name,Team,BodyweightKg,Best3SquatKg,Best3BenchKg,Best3DeadliftKg,TotalKg,Equipment,Event,Sex,BirthDate
Boys,51.71,1,Jose Vasquez Cruz,Andrews,51.66,120.2,70.31,142.88,333.39,Single-ply,SBD,M,
Boys,51.71,2,Qualyon Rios,Fort Stockton,48.22,61.23,38.56,102.06,201.85,Single-ply,SBD,M,
Boys,55.79,1,Zaniel Florez,Kermit,54.3,167.83,86.18,165.56,419.57,Single-ply,SBD,M,
Boys,55.79,2,Mattox Evans,Big Spring,55.57,131.54,70.31,156.49,358.34,Single-ply,SBD,M,
Boys,55.79,3,Nick Morales,Pecos,55.47,124.74,74.84,133.81,333.39,Single-ply,SBD,M,
Boys,55.79,4,Jorge Delgado,Andrews,52.62,124.74,65.77,127.01,317.51,Single-ply,SBD,M,
Boys,55.79,5,Luis Chavez,Andrews,55.79,117.93,65.77,127.01,310.71,Single-ply,SBD,M,
Boys,55.79,6,Andrew Rangel,Fort Stockton,51.75,61.23,45.36,68.04,174.63,Single-ply,SBD,M,
Boys,59.87,1,Ivan Zamora,Andrews,58.2,185.97,111.13,199.58,496.68,Single-ply,SBD,M,
Boys,59.87,2,Kendrick Porras,Fort Stockton,59.74,158.76,90.72,190.51,439.98,Single-ply,SBD,M,
Boys,59.87,3,Caison Burrus,Fort Stockton,55.84,158.76,68.04,158.76,385.55,Single-ply,SBD,M,
Boys,59.87,DQ,Kenny Richrdson,Big Spring,59.24,147.42,86.18,,,Single-ply,SBD,M,
Boys,67.13,1,Josh Lopez,Big Spring,65.91,201.85,108.86,210.92,521.63,Single-ply,SBD,M,
Boys,67.13,2,Avery Cruz,Midland Greenwood,66.36,195.04,95.25,176.9,467.2,Single-ply,SBD,M,
Boys,67.13,3,Jaylee Ibarra,Fort Stockton,66.5,188.24,108.86,167.83,464.93,Single-ply,SBD,M,
Boys,67.13,4,Phillip Martinez,Big Spring,62.05,142.88,74.84,149.69,367.41,Single-ply,SBD,M,
Boys,67.13,5,Gaviel Burrola,Kermit,66.72,115.67,70.31,127.01,312.98,Single-ply,SBD,M,
Boys,74.84,1,Lucas Esparza,Andrews,68.13,215.46,117.93,226.8,560.19,Single-ply,SBD,M,
Boys,74.84,2,Shawn Mendoza,Big Spring,74.3,204.12,131.54,197.31,532.97,Single-ply,SBD,M,
Boys,74.84,3,Vincent Ortiz,Big Spring,71.08,206.38,104.33,188.24,498.95,Single-ply,SBD,M,
Boys,74.84,4,David Olivas,Andrews,72.8,188.24,95.25,199.58,483.08,Single-ply,SBD,M,
Boys,74.84,5,Jesus Villegas,Kermit,67.49,174.63,97.52,172.37,444.52,Single-ply,SBD,M,
Boys,74.84,6,John Breeden,Midland Greenwood,70.67,163.29,86.18,163.29,412.77,Single-ply,SBD,M,
Boys,74.84,7,Gio Tarango,Midland Greenwood,74.12,174.63,86.18,147.42,408.23,Single-ply,SBD,M,
Boys,74.84,8,Conner McCrarey,Andrews,74.53,156.49,74.84,174.63,405.97,Single-ply,SBD,M,
Boys,82.1,1,Jaydrien Ramirez,Fort Stockton,80.65,222.26,136.08,188.24,546.58,Single-ply,SBD,M,
Boys,82.1,2,Jimmy Vasquez,Midland Greenwood,76.11,208.65,97.52,188.24,494.42,Single-ply,SBD,M,
Boys,82.1,3,Ernan Carrasco,Andrews,79.47,192.78,102.06,192.78,487.61,Single-ply,SBD,M,
Boys,82.1,4,David Madrid,Pecos,79.06,176.9,117.93,183.7,478.54,Single-ply,SBD,M,
Boys,82.1,5,Karl Karabanoff,Big Spring,81.74,181.44,88.45,190.51,460.4,Single-ply,SBD,M,
Boys,82.1,6,Jarod Humphries,Midland Greenwood,81.1,167.83,117.93,158.76,444.52,Single-ply,SBD,M,
Boys,82.1,7,Jakob Guy,Andrews,80.33,165.56,99.79,158.76,424.11,Single-ply,SBD,M,
Boys,82.1,8,Kevin Martinez,Andrews,80.56,170.1,104.33,147.42,421.84,Single-ply,SBD,M,
Boys,82.1,9,John Hyatt,Midland Greenwood,78.02,154.22,86.18,163.29,403.7,Single-ply,SBD,M,
Boys,82.1,10,Matthew Valenzuela,Andrews,82.1,142.88,106.59,154.22,403.7,Single-ply,SBD,M,
Boys,82.1,11,Adiel Rodriguez,Kermit,77.29,156.49,90.72,136.08,383.29,Single-ply,SBD,M,
Boys,82.1,12,Cole Purcell,Wink,75.84,136.08,72.57,127.01,335.66,Single-ply,SBD,M,
Boys,82.1,DQ,Christian Meladoy,Pecos,75.3,124.74,,,,Single-ply,SBD,M,
Boys,82.1,DQ,Caleb Mata,Pecos,81.6,129.27,86.18,,,Single-ply,SBD,M,
Boys,82.1,DQ,Romero Lopez,Andrews,75.98,188.24,,,,Single-ply,SBD,M,
Boys,89.81,1,Isaiah Johnson,Big Spring,86.45,204.12,122.47,192.78,519.36,Single-ply,SBD,M,
Boys,89.81,2,Rogelio Cervantes,Big Spring,88.27,197.31,111.13,197.31,505.76,Single-ply,SBD,M,
Boys,89.81,3,Juan Presas,Big Spring,89.81,206.38,104.33,192.78,503.49,Single-ply,SBD,M,
Boys,89.81,4,Justin Sanchez,Fort Stockton,87.14,156.49,142.88,192.78,492.15,Single-ply,SBD,M,
Boys,89.81,5,Wyatt Olive,Midland Greenwood,87,183.7,113.4,179.17,476.27,Single-ply,SBD,M,
Boys,89.81,6,Orlando Baeza,Midland Greenwood,86.23,170.1,117.93,163.29,451.32,Single-ply,SBD,M,
Boys,89.81,7,Joel Munguia,Kermit,87.14,179.17,83.91,183.7,446.79,Single-ply,SBD,M,
Boys,89.81,8,Jose Hernandez,Fort Stockton,83.55,136.08,97.52,140.61,374.21,Single-ply,SBD,M,
Boys,89.81,DQ,Brandon Castillo,Andrews,88.81,226.8,115.67,,,Single-ply,SBD,M,
Boys,99.79,1,Ethan Coleman,Midland Greenwood,94.26,283.5,181.44,272.16,737.09,Single-ply,SBD,M,
Boys,99.79,2,Petronillo Bustamante,Andrews,90.63,233.6,127.01,235.87,596.47,Single-ply,SBD,M,
Boys,99.79,3,Edgar Flores,Fort Stockton,97.7,217.72,145.15,204.12,566.99,Single-ply,SBD,M,
Boys,99.79,4,Jaxon Lawdermilk,Andrews,98.52,226.8,113.4,217.72,557.92,Single-ply,SBD,M,
Boys,99.79,5,Cameron Saldivar,Andrews,99.2,185.97,115.67,172.37,474,Single-ply,SBD,M,
Boys,99.79,6,Oscar Carnero,Andrews,92.9,163.29,106.59,158.76,428.64,Single-ply,SBD,M,
Boys,99.79,7,Caleb Urias,Fort Stockton,91.31,127.01,70.31,124.74,322.05,Single-ply,SBD,M,
Boys,99.79,8,Devin Garcia,Pecos,95.25,77.11,61.23,111.13,249.48,Single-ply,SBD,M,
Boys,109.77,1,Mikial Burrola,Kermit,101.38,247.21,161.03,213.19,621.42,Single-ply,SBD,M,
Boys,109.77,2,Isaiah Rodriguez,Big Spring,109.59,254.01,131.54,226.8,612.35,Single-ply,SBD,M,
Boys,109.77,3,Adrian Salcido,Andrews,107.68,208.65,138.35,195.04,542.04,Single-ply,SBD,M,
Boys,109.77,4,Mason Morgan,Wink,100.97,190.51,147.42,185.97,523.9,Single-ply,SBD,M,
Boys,109.77,5,Gage Strain,Pecos,105.23,215.46,115.67,192.78,523.9,Single-ply,SBD,M,
Boys,109.77,6,Cash Caswell,Andrews,109.13,192.78,111.13,210.92,514.83,Single-ply,SBD,M,
Boys,109.77,7,Mack Payne,Wink,100.92,188.24,111.13,176.9,476.27,Single-ply,SBD,M,
Boys,109.77,8,Jesse Putnam,Wink,102.78,158.76,120.2,174.63,453.59,Single-ply,SBD,M,
Boys,109.77,9,Tucker Tippin,Andrews,100.61,167.83,90.72,149.69,408.23,Single-ply,SBD,M,
Boys,124.74,1,Josiah Flores,Andrews,117.16,254.01,138.35,208.65,601.01,Single-ply,SBD,M,
Boys,124.74,2,Daniel Perea,Pecos,118.07,204.12,142.88,188.24,535.24,Single-ply,SBD,M,
Boys,124.74,3,Eliseo Bonilla,Kermit,111.58,183.7,120.2,181.44,485.34,Single-ply,SBD,M,
Boys,124.74,DQ,Cade Bayer,Fort Stockton,112.35,195.04,113.4,,,Single-ply,SBD,M,
Boys,124.74,DQ,Skylen Copeland,Wink,119.84,163.29,106.59,,,Single-ply,SBD,M,
Boys,139.71,1,Jayce Harris,Pecos,125.55,158.76,120.2,161.03,439.98,Single-ply,SBD,M,
Boys,139.71+,1,Hunter Cobb,Pecos,151.14,240.4,142.88,195.04,578.33,Single-ply,SBD,M,
Boys,139.71+,2,Chico Delgado,Andrews,141.43,199.58,127.01,181.44,508.02,Single-ply,SBD,M,
Boys,139.71+,3,Jalen Ramirez,Wink,146.51,199.58,97.52,204.12,501.22,Single-ply,SBD,M,
Boys,139.71+,4,Roberto Ramirez,Fort Stockton,140.16,158.76,113.4,170.1,442.25,Single-ply,SBD,M,
