Division,WeightClassKg,Place,Name,Team,BodyweightKg,Best3SquatKg,Best3BenchKg,Best3DeadliftKg,TotalKg,Equipment,Event,Sex,BirthDate
Girls,44.23,1,Skylar Kamp,Kerens,42.82,77.11,31.75,63.5,172.37,Single-ply,SBD,F,
Girls,51.94,1,Katelyn McCoy,Malakoff,50.08,88.45,49.9,97.52,235.87,Single-ply,SBD,F,
Girls,51.94,2,Linsey Cockerell,Fairfield,51.53,70.31,40.82,97.52,208.65,Single-ply,SBD,F,
Girls,51.94,3,Emma Jo Smith,Fairfield,50.8,86.18,52.16,68.04,206.38,Single-ply,SBD,F,
Girls,51.94,DQ,Jamison Courville,Cayuga,49.26,63.5,,77.11,,Single-ply,SBD,F,
Girls,56.02,1,Abby Coleman,Fairfield,54.88,115.67,63.5,117.93,297.1,Single-ply,SBD,F,
Girls,56.02,2,Laura Williams,Kerens,52.98,97.52,38.56,97.52,233.6,Single-ply,SBD,F,
Girls,56.02,DQ,Tiyah Courville,Cayuga,52.89,,34.02,72.57,,Single-ply,SBD,F,
Girls,60.1,1,Esmeralda Almaguer,Kerens,59.24,102.06,65.77,108.86,276.69,Single-ply,SBD,F,
Girls,60.1,2,Shanthal Blancas,Corsicana,57.33,88.45,43.09,102.06,233.6,Single-ply,SBD,F,
Girls,60.1,3,Vanessa Cervantes,Corsicana,57.97,90.72,52.16,90.72,233.6,Single-ply,SBD,F,
Girls,60.1,4,Karina Estrada,Corsicana,60.06,83.91,38.56,102.06,224.53,Single-ply,SBD,F,
Girls,60.1,5,Katy Grounds,Fairfield,57.06,74.84,47.63,83.91,206.38,Single-ply,SBD,F,
Girls,67.36,1,Kie Burns,Malakoff,66.13,111.13,52.16,99.79,263.08,Single-ply,SBD,F,
Girls,67.36,2,Reagan Smith #1,Malakoff,61.33,90.72,45.36,113.4,249.48,Single-ply,SBD,F,
Girls,67.36,3,Gracie Meador,Malakoff,62.87,97.52,45.36,104.33,247.21,Single-ply,SBD,F,
Girls,67.36,4,Samantha Mendoza,Corsicana,66.22,86.18,47.63,108.86,242.67,Single-ply,SBD,F,
Girls,67.36,5,Malerie Hinshaw,Cayuga,65.5,88.45,43.09,102.06,233.6,Single-ply,SBD,F,
Girls,67.36,6,Marley Vincent,Cayuga,62.23,86.18,43.09,95.25,224.53,Single-ply,SBD,F,
Girls,67.36,7,Soynoia Davis,Palestine Westwood,66.68,83.91,38.56,90.72,213.19,Single-ply,SBD,F,
Girls,75.07,1,Katie Crews,Malakoff,73.48,127.01,63.5,120.2,310.71,Single-ply,SBD,F,
Girls,75.07,2,Kyrah Chambers,Malakoff,71.3,120.2,52.16,113.4,285.76,Single-ply,SBD,F,
Girls,75.07,3,Taiz Hawkins,Corsicana,73.39,97.52,56.7,113.4,267.62,Single-ply,SBD,F,
Girls,75.07,4,Rylee Yates,Palestine Westwood,72.57,90.72,54.43,113.4,258.55,Single-ply,SBD,F,
Girls,75.07,5,Alexia Roman,Malakoff,71.12,92.99,45.36,102.06,240.4,Single-ply,SBD,F,
Girls,75.07,6,Bailey Bailey,Fairfield,70.67,63.5,43.09,81.65,188.24,Single-ply,SBD,F,
Girls,75.07,DQ,Morgan Yates,Palestine Westwood,73.75,95.25,38.56,,,Single-ply,SBD,F,
Girls,82.33,1,Bre Dowell,Fairfield,77.11,145.15,61.23,172.37,378.75,Single-ply,SBD,F,
Girls,82.33,2,Kelli Richardson,Fairfield,78.2,136.08,74.84,122.47,333.39,Single-ply,SBD,F,
Girls,82.33,3,Kianna Williams,Malakoff,79.38,131.54,61.23,113.4,306.17,Single-ply,SBD,F,
Girls,82.33,4,Jacqueline Martinez,Corsicana,82.19,102.06,47.63,106.59,256.28,Single-ply,SBD,F,
Girls,82.33,5,Jasmine Harris,Malakoff,78.2,95.25,43.09,106.59,244.94,Single-ply,SBD,F,
Girls,90.04,1,Mayra Cortes,Van,83.37,145.15,61.23,147.42,353.8,Single-ply,SBD,F,
Girls,90.04,2,Junie Harry,Corsicana,85.28,122.47,63.5,149.69,335.66,Single-ply,SBD,F,
Girls,90.04,3,Tiara Bailey,Kerens,83.73,111.13,61.23,124.74,297.1,Single-ply,SBD,F,
Girls,90.04,4,Camila Martinez,Palestine Westwood,85.37,111.13,56.7,113.4,281.23,Single-ply,SBD,F,
Girls,90.04,5,Emma Combs,Kerens,86.91,115.67,65.77,95.25,276.69,Single-ply,SBD,F,
Girls,90.04,6,Jaquala Carr,Malakoff,85.18,102.06,45.36,108.86,256.28,Single-ply,SBD,F,
Girls,90.04,7,Kaylee Reddy,Van,86.73,92.99,45.36,92.99,231.33,Single-ply,SBD,F,
Girls,90.04,8,Courtney Botkin,Corsicana,88.99,86.18,52.16,92.99,231.33,Single-ply,SBD,F,
Girls,90.04,9,Ruby Green,Corsicana,85,92.99,40.82,92.99,226.8,Single-ply,SBD,F,
Girls,90.04,10,Kelsi Phillips,Van,86.36,47.63,34.02,77.11,158.76,Single-ply,SBD,F,
Girls,100.02,1,Skylar McCool,Van,99.97,145.15,61.23,136.08,342.46,Single-ply,SBD,F,
Girls,100.02,2,Aubrey Griffith,Malakoff,91.63,108.86,45.36,111.13,265.35,Single-ply,SBD,F,
Girls,100.02,3,Hailey Karnes,Cayuga,94.98,95.25,45.36,86.18,226.8,Single-ply,SBD,F,
Girls,117.71,1,Alice Billingsley,Kerens,112.31,127.01,86.18,136.08,349.27,Single-ply,SBD,F,
Girls,117.71,2,Madison Brumit,Kerens,101.42,113.4,61.23,117.93,292.57,Single-ply,SBD,F,
Girls,117.71,3,Bailey Guy,Van,101.97,61.23,34.02,90.72,185.97,Single-ply,SBD,F,
Girls,117.71+,1,Maria Ruiz,Corsicana,120.66,120.2,63.5,108.86,292.57,Single-ply,SBD,F,
Girls,117.71+,2,Hailey Robinson,Van,118.3,72.57,54.43,92.99,219.99,Single-ply,SBD,F,
Girls,117.71+,3,Natalie Vadnais,Van,129.46,52.16,47.63,86.18,185.97,Single-ply,SBD,F,
