Division,WeightClassKg,Place,Name,Team,BodyweightKg,Best3SquatKg,Best3BenchKg,Best3DeadliftKg,TotalKg,Equipment,Event,Sex,BirthDate
Boys,51.71,1,Logan Williams,Nederland,50.71,163.29,72.57,149.69,385.55,Single-ply,SBD,M,
Boys,51.71,2,Evan Ceja,Nederland,51.62,154.22,86.18,145.15,385.55,Single-ply,SBD,M,
Boys,51.71,3,Dandrea Hutchinson,Dickinson,50.62,145.15,77.11,136.08,358.34,Single-ply,SBD,M,
Boys,51.71,4,Owen Sims,Magnolia,50.98,129.27,70.31,129.27,328.85,Single-ply,SBD,M,
Boys,51.71,5,John Garcia,New Caney,51.26,115.67,86.18,124.74,326.59,Single-ply,SBD,M,
Boys,51.71,6,Mason Myers,Santa Fe,51.53,122.47,56.7,124.74,303.91,Single-ply,SBD,M,
Boys,51.71,7,Christopher Ince,Conroe The Woodlands,50.71,102.06,52.16,102.06,256.28,Single-ply,SBD,M,
Boys,51.71,8,Landyn Harmon,Baytown Lee,51.71,83.91,47.63,111.13,242.67,Single-ply,SBD,M,
Boys,51.71,9,Daniel Burgess,Conroe Woodlands College Park,51.07,83.91,47.63,102.06,233.6,Single-ply,SBD,M,
Boys,51.71,10,Tyler Vu,Dickinson,47.54,83.91,43.09,104.33,231.33,Single-ply,SBD,M,
Boys,51.71,11,Seven Petteway,Clute Brazoswood,47.45,72.57,56.7,86.18,215.46,Single-ply,SBD,M,
Boys,51.71,DQ,Devin Ruiz,Baytown Goose Creek Memorial,51.71,,,,,Single-ply,SBD,M,
Boys,55.79,1,Jacob Cavness,Santa Fe,54.88,192.78,104.33,156.49,453.59,Single-ply,SBD,M,
Boys,55.79,2,Emmanuel Villagomez,Conroe Caney Creek,54.52,163.29,99.79,165.56,428.64,Single-ply,SBD,M,
Boys,55.79,3,Raymon Castaneda,Port Neches-Groves,55.61,154.22,90.72,151.95,396.89,Single-ply,SBD,M,
Boys,55.79,4,Noah Hardy,Nederland,53.16,154.22,79.38,161.03,394.63,Single-ply,SBD,M,
Boys,55.79,5,Brandon Leblanc,Magnolia West,54.25,136.08,81.65,151.95,369.68,Single-ply,SBD,M,
Boys,55.79,6,Issac Cortinas,New Caney Porter,53.52,127.01,95.25,145.15,367.41,Single-ply,SBD,M,
Boys,55.79,7,Ashtin Carlock,Conroe Grand Oaks,54.25,122.47,86.18,140.61,349.27,Single-ply,SBD,M,
Boys,55.79,8,Jacob Zea,Katy Taylor,55.79,136.08,68.04,140.61,344.73,Single-ply,SBD,M,
Boys,55.79,9,Alex Salto,Manvel,53.61,115.67,79.38,138.35,333.39,Single-ply,SBD,M,
Boys,55.79,10,Lukas Alvarez,Conroe The Woodlands,54.98,117.93,65.77,140.61,324.32,Single-ply,SBD,M,
Boys,55.79,11,Kyler Burden,Montgomery Lake Creek,54.43,106.59,65.77,102.06,274.42,Single-ply,SBD,M,
Boys,55.79,DQ,Mitchell Willis,Galveston Ball,55.79,,,,,Single-ply,SBD,M,
Boys,59.87,1,Juan Chavez,New Caney,59.78,183.7,122.47,192.78,498.95,Single-ply,SBD,M,
Boys,59.87,2,Cameron Yale,Magnolia,59.51,199.58,102.06,192.78,494.42,Single-ply,SBD,M,
Boys,59.87,3,Eric Julio,Houston Northbrook,59.87,174.63,83.91,174.63,433.18,Single-ply,SBD,M,
Boys,59.87,4,Luis Santillan,New Caney,59.6,163.29,92.99,163.29,419.57,Single-ply,SBD,M,
Boys,59.87,5,Emory Nicholson,Montgomery,58.79,142.88,106.59,165.56,415.04,Single-ply,SBD,M,
Boys,59.87,6,Hank Hewgley,Conroe The Woodlands,59.6,156.49,102.06,151.95,410.5,Single-ply,SBD,M,
Boys,59.87,7,Jim Gomez,Dickinson,59.15,163.29,74.84,170.1,408.23,Single-ply,SBD,M,
Boys,59.87,8,Anthony Garcia,Alvin,58.69,170.1,77.11,145.15,392.36,Single-ply,SBD,M,
Boys,59.87,9,Tristin Corn,Texas City,59.69,151.95,83.91,156.49,392.36,Single-ply,SBD,M,
Boys,59.87,10,Caleb Abbott,Magnolia,56.61,156.49,88.45,145.15,390.09,Single-ply,SBD,M,
Boys,59.87,11,Jesus Alaniz,Alvin,59.33,172.37,63.5,151.95,387.82,Single-ply,SBD,M,
Boys,59.87,12,Josyah Delekaita,Dickinson,59.78,147.42,77.11,154.22,378.75,Single-ply,SBD,M,
Boys,59.87,DQ,Jacob Robinson,Waller,59.87,,,,,Single-ply,SBD,M,
Boys,67.13,1,Logan Hodges,Alvin,66.41,233.6,115.67,226.8,576.06,Single-ply,SBD,M,
Boys,67.13,2,Rogelio Barrera,Conroe,66.04,213.19,133.81,226.8,573.79,Single-ply,SBD,M,
Boys,67.13,3,Daniel Gil,Conroe The Woodlands,66.32,213.19,142.88,217.72,573.79,Single-ply,SBD,M,
Boys,67.13,4,Diego Torres,Nederland,67.04,208.65,102.06,233.6,544.31,Single-ply,SBD,M,
Boys,67.13,5,Ian Keck,Magnolia West,64.32,204.12,113.4,199.58,517.1,Single-ply,SBD,M,
Boys,67.13,6,Evan Salazar,Cleveland,63.68,215.46,115.67,183.7,514.83,Single-ply,SBD,M,
Boys,67.13,7,Ryan Johnson,Conroe Grand Oaks,66.95,195.04,122.47,197.31,514.83,Single-ply,SBD,M,
Boys,67.13,8,Marc Lopez,Baytown Goose Creek Memorial,66.22,208.65,108.86,190.51,508.02,Single-ply,SBD,M,
Boys,67.13,9,Joe Vega #7,Alvin,65.5,195.04,102.06,195.04,492.15,Single-ply,SBD,M,
Boys,67.13,10,Josue Velasquez,New Caney Porter,66.04,174.63,113.4,192.78,480.81,Single-ply,SBD,M,
Boys,67.13,11,Joseph Stokes,Montgomery Lake Creek,65.95,170.1,106.59,199.58,476.27,Single-ply,SBD,M,
Boys,67.13,12,Ben Bisaillon,Katy Taylor,66.22,161.03,102.06,170.1,433.18,Single-ply,SBD,M,
Boys,67.13,DQ,Robert Ellis,Galveston Ball,66.86,226.8,129.27,,,Single-ply,SBD,M,
Boys,74.84,1,Landon Thomas,Magnolia West,74.39,226.8,136.08,219.99,582.87,Single-ply,SBD,M,
Boys,74.84,2,Aiden Peterson,Conroe The Woodlands,72.48,210.92,129.27,238.14,578.33,Single-ply,SBD,M,
Boys,74.84,3,Robert Johnson,Pearland Dawson,74.84,217.72,133.81,208.65,560.19,Single-ply,SBD,M,
Boys,74.84,4,Christian Weaver,Conroe,74.48,217.72,131.54,208.65,557.92,Single-ply,SBD,M,
Boys,74.84,5,Bryce Johnston,Baytown Goose Creek Memorial,73.12,222.26,106.59,226.8,555.65,Single-ply,SBD,M,
Boys,74.84,6,Will Sere,Conroe Grand Oaks,72.48,222.26,106.59,219.99,548.85,Single-ply,SBD,M,
Boys,74.84,7,Jonathan Martin,Beaumont United,71.49,199.58,111.13,222.26,532.97,Single-ply,SBD,M,
Boys,74.84,8,Junji Chen,Alvin Shadow Creek,72.94,192.78,124.74,215.46,532.97,Single-ply,SBD,M,
Boys,74.84,9,Davin Lee,Dayton,72.21,188.24,127.01,210.92,526.17,Single-ply,SBD,M,
Boys,74.84,10,Nicholas Stoughton,Alvin,74.21,195.04,122.47,199.58,517.1,Single-ply,SBD,M,
Boys,74.84,11,Alexander Tsang,Montgomery,74.57,192.78,131.54,190.51,514.83,Single-ply,SBD,M,
Boys,74.84,DQ,Larry Brooks,Beaumont West Brook,73.57,213.19,131.54,,,Single-ply,SBD,M,
Boys,82.1,1,LaMarcus Owens,Manvel,80.38,242.67,136.08,240.4,619.15,Single-ply,SBD,M,
Boys,82.1,2,Cace Jones,Dickinson,79.02,240.4,111.13,254.01,605.55,Single-ply,SBD,M,
Boys,82.1,3,Rodolfo Mayorquin,New Caney,80.38,233.6,145.15,226.8,605.55,Single-ply,SBD,M,
Boys,82.1,4,Sergio Hinojosa,Baytown Goose Creek Memorial,77.66,219.99,122.47,238.14,580.6,Single-ply,SBD,M,
Boys,82.1,5,Nathan Leone,Conroe The Woodlands,79.74,226.8,124.74,219.99,571.53,Single-ply,SBD,M,
Boys,82.1,6,Colton Smith,Conroe The Woodlands,80.92,226.8,129.27,215.46,571.53,Single-ply,SBD,M,
Boys,82.1,7,Diego Trujillo,Conroe Oak Ridge,81.74,217.72,129.27,219.99,566.99,Single-ply,SBD,M,
Boys,82.1,8,David Bush,Conroe Grand Oaks,80.74,226.8,136.08,199.58,562.45,Single-ply,SBD,M,
Boys,82.1,9,Michael Carter,Magnolia,81.1,233.6,129.27,192.78,555.65,Single-ply,SBD,M,
Boys,82.1,10,Bladdin Hill,Dickinson,80.56,204.12,133.81,206.38,544.31,Single-ply,SBD,M,
Boys,82.1,11,Donnie Garcia,Magnolia West,81.19,219.99,122.47,201.85,544.31,Single-ply,SBD,M,
Boys,82.1,DQ,Evan Dickerson,Pearland Dawson,77.75,,,,,Single-ply,SBD,M,
Boys,89.81,1,Nick Goedde,Katy Taylor,88.72,251.74,147.42,267.62,666.78,Single-ply,SBD,M,
Boys,89.81,2,DeMonte Seymore,Manvel,86.73,254.01,149.69,260.82,664.51,Single-ply,SBD,M,
Boys,89.81,3,Cam'ron Willis,Dayton,86.45,240.4,129.27,249.48,619.15,Single-ply,SBD,M,
Boys,89.81,4,Andrew Larkworthy,Conroe The Woodlands,88,215.46,145.15,233.6,594.21,Single-ply,SBD,M,
Boys,89.81,5,Robert Dorado,Magnolia West,89.36,235.87,124.74,226.8,587.4,Single-ply,SBD,M,
Boys,89.81,6,Jonathan Sagastizado,Dickinson,86.36,233.6,124.74,213.19,571.53,Single-ply,SBD,M,
Boys,89.81,7,Zach Phipps,Waller,88.45,219.99,133.81,213.19,566.99,Single-ply,SBD,M,
Boys,89.81,8,Johnnie Torres,Nederland,87.54,219.99,122.47,217.72,560.19,Single-ply,SBD,M,
Boys,89.81,9,Dijon James,Clute Brazoswood,88.09,195.04,145.15,219.99,560.19,Single-ply,SBD,M,
Boys,89.81,10,Eddie Parker,Alvin,87.36,226.8,142.88,185.97,555.65,Single-ply,SBD,M,
Boys,89.81,11,Shannon Richardson,Conroe,88.09,201.85,127.01,226.8,555.65,Single-ply,SBD,M,
Boys,89.81,12,Izaias Escobar,Alvin,89.18,215.46,108.86,201.85,526.17,Single-ply,SBD,M,
Boys,99.79,1,Micaiah Loop,Conroe,97.7,281.23,192.78,249.48,723.48,Single-ply,SBD,M,
Boys,99.79,2,Jason Pinder,Dickinson,95.8,267.62,145.15,244.94,657.71,Single-ply,SBD,M,
Boys,99.79,3,Jaylon Wyatt,Conroe Oak Ridge,99.25,240.4,170.1,247.21,657.71,Single-ply,SBD,M,
Boys,99.79,4,Andrew Laws,Dickinson,96.34,260.82,142.88,233.6,637.3,Single-ply,SBD,M,
Boys,99.79,5,Giovanni Zaso,Pasadena Memorial,96.62,263.08,140.61,233.6,637.3,Single-ply,SBD,M,
Boys,99.79,6,Canton Kempf,Santa Fe,94.71,254.01,138.35,242.67,635.03,Single-ply,SBD,M,
Boys,99.79,7,Myles Terry,Conroe Oak Ridge,98.79,247.21,151.95,226.8,625.96,Single-ply,SBD,M,
Boys,99.79,8,Leslie Williams,Montgomery,95.53,224.53,151.95,247.21,623.69,Single-ply,SBD,M,
Boys,99.79,9,Journey Rey Santos,New Caney Porter,99.52,242.67,185.97,181.44,610.08,Single-ply,SBD,M,
Boys,99.79,10,Alex Martin #2,Conroe The Woodlands,97.25,249.48,142.88,210.92,603.28,Single-ply,SBD,M,
Boys,99.79,11,Zach Cooper,Montgomery,96.62,204.12,145.15,238.14,587.4,Single-ply,SBD,M,
Boys,99.79,DQ,Dylan Campbell,Alvin Shadow Creek,97.07,,,,,Single-ply,SBD,M,
Boys,109.77,1,Logan Ecuyer,Conroe The Woodlands,104.51,306.17,195.04,288.03,789.25,Single-ply,SBD,M,
Boys,109.77,2,Chancellor Buford,Alvin Shadow Creek,108.68,272.16,165.56,301.64,739.36,Single-ply,SBD,M,
Boys,109.77,3,Jacob Harris,Conroe Oak Ridge,108.95,278.96,161.03,283.5,723.48,Single-ply,SBD,M,
Boys,109.77,4,Donaven Jackson,Port Arthur Memorial,108.05,260.82,151.95,256.28,669.05,Single-ply,SBD,M,
Boys,109.77,5,Adrian Tamez,Pasadena Memorial,105.51,251.74,151.95,242.67,646.37,Single-ply,SBD,M,
Boys,109.77,6,Jesus Hernandez,Conroe Oak Ridge,106.05,240.4,170.1,231.33,641.83,Single-ply,SBD,M,
Boys,109.77,7,Ethan Wiggins,Montgomery Lake Creek,107.32,254.01,147.42,229.06,630.49,Single-ply,SBD,M,
Boys,109.77,8,Cameron Coleman,Beaumont West Brook,102.97,219.99,158.76,222.26,601.01,Single-ply,SBD,M,
Boys,109.77,9,Jacob Pitzer,Conroe,109.32,226.8,145.15,229.06,601.01,Single-ply,SBD,M,
Boys,109.77,10,Prince Echaverry,Houston Northbrook,108.23,233.6,129.27,229.06,591.94,Single-ply,SBD,M,
Boys,109.77,11,Alex Flores,Clute Brazoswood,103.87,233.6,145.15,210.92,589.67,Single-ply,SBD,M,
Boys,109.77,12,Mason Feldman,Magnolia,105.87,247.21,,,247.21,Single-ply,S,M,
Boys,109.77,DQ,Braxton Chambers,Beaumont West Brook,109.77,,,,,Single-ply,SBD,M,
Boys,109.77,DQ,Logan Huber,Clute Brazoswood,109.77,,,,,Single-ply,SBD,M,
Boys,109.77,DQ,Payton Korolyk,Conroe Grand Oaks,102.33,272.16,183.7,,,Single-ply,SBD,M,
Boys,124.74,1,David Trevino,Alvin,121.93,294.84,154.22,260.82,709.87,Single-ply,SBD,M,
Boys,124.74,2,Dylan Hughes,Alvin Shadow Creek,124.74,263.08,174.63,265.35,703.07,Single-ply,SBD,M,
Boys,124.74,3,Trent Mikes,Santa Fe,118.39,285.76,163.29,238.14,687.19,Single-ply,SBD,M,
Boys,124.74,4,Danny Bonilla,Conroe Oak Ridge,114.4,260.82,154.22,231.33,646.37,Single-ply,SBD,M,
Boys,124.74,5,Cobe Williams,Conroe Woodlands College Park,121.47,235.87,174.63,229.06,639.57,Single-ply,SBD,M,
Boys,124.74,6,Dereiaz Wilson,Dickinson,114.21,238.14,165.56,226.8,630.49,Single-ply,SBD,M,
Boys,124.74,7,Jose Jimenez,Pasadena Memorial,115.94,240.4,124.74,258.55,623.69,Single-ply,SBD,M,
Boys,124.74,8,Holden Craver,Nederland,118.93,274.42,142.88,199.58,616.89,Single-ply,SBD,M,
Boys,124.74,DQ,Carlos Ortiz,Magnolia,113.13,274.42,138.35,,,Single-ply,SBD,M,
Boys,124.74,DQ,Aiden Garris,Conroe Oak Ridge,122.47,263.08,140.61,,,Single-ply,SBD,M,
Boys,124.74,DQ,Jose Cuevas,Galveston Ball,119.57,249.48,113.4,,,Single-ply,SBD,M,
Boys,139.71,1,Tristen Nabors,Santa Fe,127.37,288.03,167.83,231.33,687.19,Single-ply,SBD,M,
Boys,139.71,2,Zach Rogers,Willis,134.44,281.23,149.69,256.28,687.19,Single-ply,SBD,M,
Boys,139.71,3,Sebastian Duarte,Conroe The Woodlands,125.92,260.82,176.9,242.67,680.39,Single-ply,SBD,M,
Boys,139.71,4,Charles Ray,Texas City,136.8,281.23,145.15,247.21,673.58,Single-ply,SBD,M,
Boys,139.71,5,Jonathan Lopez,Pearland Dawson,125.1,281.23,129.27,238.14,648.64,Single-ply,SBD,M,
Boys,139.71,6,Marque Johnson #3,Conroe,128.64,281.23,145.15,222.26,648.64,Single-ply,SBD,M,
Boys,139.71,7,Xavier Potts,Manvel,130.09,272.16,136.08,240.4,648.64,Single-ply,SBD,M,
Boys,139.71,8,Michael Marshall,Nederland,129.09,272.16,154.22,213.19,639.57,Single-ply,SBD,M,
Boys,139.71,9,John Fletcher,Manvel,127.64,238.14,156.49,215.46,610.08,Single-ply,SBD,M,
Boys,139.71,10,Juan Pabon,Pasadena Memorial,129,231.33,136.08,231.33,598.74,Single-ply,SBD,M,
Boys,139.71,11,Jahangir Samandov,Katy Taylor,130.54,226.8,136.08,233.6,596.47,Single-ply,SBD,M,
Boys,139.71,12,Augustus Belser,Conroe Grand Oaks,130.73,233.6,136.08,206.38,576.06,Single-ply,SBD,M,
Boys,139.71+,1,Matthew Gaudern,Conroe Oak Ridge,153.13,294.84,149.69,247.21,691.73,Single-ply,SBD,M,
Boys,139.71+,2,Josiah Mason,Dickinson,140.8,276.69,181.44,222.26,680.39,Single-ply,SBD,M,
Boys,139.71+,3,Omar Nieto,Baytown Lee,148.32,242.67,140.61,240.4,623.69,Single-ply,SBD,M,
Boys,139.71+,4,Joshua Henry,Conroe Caney Creek,156.49,235.87,163.29,208.65,607.81,Single-ply,SBD,M,
Boys,139.71+,5,Demarcus Wilridge,Conroe,141.16,235.87,151.95,210.92,598.74,Single-ply,SBD,M,
Boys,139.71+,6,Eric Sneed,Texas City,152.59,265.35,145.15,183.7,594.21,Single-ply,SBD,M,
Boys,139.71+,7,Devin Davis #2,Manvel,147.78,208.65,172.37,179.17,560.19,Single-ply,SBD,M,
Boys,139.71+,8,Micah Liedy,Beaumont United,166.74,231.33,106.59,195.04,532.97,Single-ply,SBD,M,
Boys,139.71+,9,Alexander Romero,Dayton,141.43,215.46,104.33,188.24,508.02,Single-ply,SBD,M,
Boys,139.71+,10,Marcus Jefferson,Beaumont West Brook,152.23,174.63,115.67,195.04,485.34,Single-ply,SBD,M,
Boys,139.71+,DQ,Ty Burroughs,Magnolia West,141.16,,,,,Single-ply,SBD,M,
Boys,139.71+,DQ,Anthony Reyes,Pearland,158.21,233.6,113.4,,,Single-ply,SBD,M,
