Division,WeightClassKg,Place,Name,Team,BodyweightKg,Best3SquatKg,Best3BenchKg,Best3DeadliftKg,TotalKg,Equipment,Event,Sex,BirthDate
Boys,51.71,1,Braden Bludau,Hallettsville,50.44,108.86,70.31,95.25,274.42,Single-ply,SBD,M,
Boys,51.71,2,Cole Rother,Hallettsville,48.67,79.38,49.9,90.72,219.99,Single-ply,SBD,M,
Boys,55.79,1,Clay Kohleffel,Columbus,55.34,106.59,65.77,127.01,299.37,Single-ply,SBD,M,
Boys,67.13,1,Juan Carlos Hernandez,Altair Rice,67.13,142.88,97.52,181.44,421.84,Single-ply,SBD,M,
Boys,67.13,2,Kaldon Roensch,Columbus,66.04,138.35,113.4,127.01,378.75,Single-ply,SBD,M,
Boys,67.13,3,Sam Peacock,Altair Rice,66.95,138.35,86.18,147.42,371.95,Single-ply,SBD,M,
Boys,67.13,4,Damarion Austin,Hallettsville,64.09,136.08,65.77,136.08,337.93,Single-ply,SBD,M,
Boys,74.84,1,Matthew Shannon,Hallettsville,70.26,167.83,90.72,172.37,430.91,Single-ply,SBD,M,
Boys,74.84,2,Tommy Schobel,Columbus,74.84,149.69,99.79,149.69,399.16,Single-ply,SBD,M,
Boys,74.84,3,Cory Lewis,Columbus,69.85,140.61,90.72,165.56,396.89,Single-ply,SBD,M,
Boys,74.84,4,Brady Copely,Hallettsville,69.54,111.13,61.23,115.67,288.03,Single-ply,SBD,M,
Boys,82.1,1,Michael Flores,Altair Rice,81.69,179.17,108.86,201.85,489.88,Single-ply,SBD,M,
Boys,82.1,2,Cameron Alamilla,Hallettsville,78.52,165.56,102.06,154.22,421.84,Single-ply,SBD,M,
Boys,82.1,3,Hudson Schobel,Columbus,80.38,156.49,90.72,154.22,401.43,Single-ply,SBD,M,
Boys,82.1,4,Josh Horndt,Altair Rice,79.56,97.52,72.57,120.2,290.3,Single-ply,SBD,M,
Boys,89.81,1,Landon Rodriguez,Altair Rice,89.72,213.19,124.74,190.51,528.44,Single-ply,SBD,M,
Boys,89.81,2,Luis Reyes,Altair Rice,89.77,174.63,99.79,158.76,433.18,Single-ply,SBD,M,
Boys,89.81,3,Morgan Machac,Altair Rice,89.81,165.56,99.79,158.76,424.11,Single-ply,SBD,M,
Boys,89.81,4,Daylon Vanhowten,Hallettsville,83.64,77.11,47.63,79.38,204.12,Single-ply,SBD,M,
Boys,99.79,1,Oscar Ramirez,Columbus,97.52,192.78,108.86,204.12,505.76,Single-ply,SBD,M,
Boys,99.79,2,Sean Sims,Altair Rice,96.89,181.44,83.91,149.69,415.04,Single-ply,SBD,M,
Boys,109.77,1,Landon Sluka,Hallettsville,109.27,219.99,131.54,217.72,569.26,Single-ply,SBD,M,
Boys,109.77,2,Hunter Mangum,Columbus,107.32,192.78,115.67,201.85,510.29,Single-ply,SBD,M,
Boys,109.77,3,Jordan Garcia #1,Columbus,103.96,190.51,127.01,181.44,498.95,Single-ply,SBD,M,
Boys,109.77,4,Ethan Luna,Altair Rice,109.32,192.78,99.79,156.49,449.06,Single-ply,SBD,M,
Boys,109.77,5,Daegan Stevens,Columbus,108.18,142.88,77.11,163.29,383.29,Single-ply,SBD,M,
Boys,109.77,6,Nathan Frazer,Hallettsville,107.32,95.25,70.31,99.79,265.35,Single-ply,SBD,M,
Boys,139.71,1,Antonio Marquez,Altair Rice,136.44,242.67,151.95,201.85,596.47,Single-ply,SBD,M,
Boys,139.71+,1,Taj Fields,Altair Rice,154.67,272.16,172.37,238.14,682.66,Single-ply,SBD,M,
Boys,139.71+,2,Cody Robert,Hallettsville,154.22,190.51,149.69,183.7,523.9,Single-ply,SBD,M,
Boys,,NS,Nijay Johnson,Columbus,,,,,,Single-ply,SBD,M,
Boys,,NS,Zachary Nelson,Columbus,,,,,,Single-ply,SBD,M,
Boys,,NS,Josh Everette,Columbus,,,,,,Single-ply,SBD,M,
Boys,,NS,Gene Montgomery,Altair Rice,,,,,,Single-ply,SBD,M,
Boys,,NS,Rafael Herrera,Altair Rice,,,,,,Single-ply,SBD,M,
Boys,,NS,Hunter Kazmir,Altair Rice,,,,,,Single-ply,SBD,M,
Boys,,NS,Dustin Parker,Altair Rice,,,,,,Single-ply,SBD,M,
