Division,WeightClassKg,Place,Name,Team,BodyweightKg,Best3SquatKg,Best3BenchKg,Best3DeadliftKg,TotalKg,Equipment,Event,Sex,BirthDate
Boys,51.71,1,Seven Petteway,Clute Brazoswood,47.31,68.04,43.09,72.57,183.7,Single-ply,SBD,M,
Boys,51.71,2,Morgan Guevara,Pasadena Memorial,49.44,61.23,29.48,61.23,151.95,Single-ply,SBD,M,
Boys,51.71,3,Mason Guevara,Pasadena Memorial,49.44,61.23,29.48,61.23,151.95,Single-ply,SBD,M,
Boys,67.13,1,Marcos Zuñiga,Clute Brazoswood,66.32,151.95,92.99,156.49,401.43,Single-ply,SBD,M,
Boys,67.13,2,Jesus Ramirez,Clute Brazoswood,65.68,113.4,72.57,138.35,324.32,Single-ply,SBD,M,
Boys,67.13,3,Peyton Shelby,Clute Brazoswood,67.04,102.06,52.16,102.06,256.28,Single-ply,SBD,M,
Boys,67.13,DQ,Evan Horton,Clute Brazoswood,64.86,,,,,Single-ply,SBD,M,
Boys,74.84,1,Matthew Payne,Clute Brazoswood,74.48,165.56,111.13,161.03,437.72,Single-ply,SBD,M,
Boys,74.84,2,Franco Godoy,Pasadena Memorial,74.39,163.29,86.18,163.29,412.77,Single-ply,SBD,M,
Boys,74.84,3,Jacob Artiles,Pasadena Memorial,74.84,108.86,70.31,127.01,306.17,Single-ply,SBD,M,
Boys,82.1,1,Turner Currier,Clute Brazoswood,81.92,188.24,120.2,183.7,492.15,Single-ply,SBD,M,
Boys,82.1,2,Christian Lease,Clute Brazoswood,77.66,183.7,99.79,183.7,467.2,Single-ply,SBD,M,
Boys,82.1,3,Gilbert Partlow,Pasadena Memorial,78.02,165.56,68.04,183.7,417.3,Single-ply,SBD,M,
Boys,82.1,4,Ayden Holland,Clute Brazoswood,79.38,140.61,92.99,154.22,387.82,Single-ply,SBD,M,
Boys,82.1,5,Christopher Jimenez,Pasadena Memorial,79.83,131.54,65.77,158.76,356.07,Single-ply,SBD,M,
Boys,82.1,6,Danny Garcia,Clute Brazoswood,76.02,104.33,58.97,142.88,306.17,Single-ply,SBD,M,
Boys,82.1,DQ,Alejandro Mateos,Pasadena Memorial,81.65,,,,,Single-ply,SBD,M,
Boys,89.81,1,Chris West,Clute Brazoswood,87,183.7,115.67,199.58,498.95,Single-ply,SBD,M,
Boys,89.81,2,Greg Caringer,Pasadena Memorial,83.91,183.7,88.45,174.63,446.79,Single-ply,SBD,M,
Boys,89.81,3,Xavier Olivares,Clute Brazoswood,88.18,163.29,102.06,176.9,442.25,Single-ply,SBD,M,
Boys,89.81,4,Tyshawn Thomas,Clute Brazoswood,82.55,136.08,92.99,149.69,378.75,Single-ply,SBD,M,
Boys,89.81,DQ,Dacoda Lopez,Clute Brazoswood,87.82,,,,,Single-ply,SBD,M,
Boys,99.79,1,Giovanni Zaso,Pasadena Memorial,93.89,254.01,129.27,208.65,591.94,Single-ply,SBD,M,
Boys,99.79,2,Dijon James,Clute Brazoswood,90.99,170.1,145.15,226.8,542.04,Single-ply,SBD,M,
Boys,99.79,3,Aiden Grainger,Pasadena Memorial,99.34,183.7,102.06,183.7,469.47,Single-ply,SBD,M,
Boys,99.79,4,Marco Guajardo,Clute Brazoswood,99.25,161.03,120.2,161.03,442.25,Single-ply,SBD,M,
Boys,99.79,5,Davis Groves,Clute Brazoswood,97.98,129.27,74.84,136.08,340.19,Single-ply,SBD,M,
Boys,109.77,1,Adrian Tamez,Pasadena Memorial,109.32,226.8,142.88,233.6,603.28,Single-ply,SBD,M,
Boys,109.77,2,Logan Huber,Clute Brazoswood,108.68,215.46,170.1,204.12,589.67,Single-ply,SBD,M,
Boys,109.77,3,Alex Flores,Clute Brazoswood,107.77,224.53,133.81,204.12,562.45,Single-ply,SBD,M,
Boys,109.77,4,Dominic Escamilla,Clute Brazoswood,107.68,183.7,124.74,206.38,514.83,Single-ply,SBD,M,
Boys,109.77,5,Jayden Balderez,Pasadena Memorial,102.51,165.56,108.86,154.22,428.64,Single-ply,SBD,M,
Boys,109.77,6,Kevin Rodriguez,Pasadena Memorial,105.23,142.88,77.11,142.88,362.87,Single-ply,SBD,M,
Boys,109.77,DQ,Bryant Martinez,Pasadena Memorial,108.86,165.56,72.57,,,Single-ply,SBD,M,
Boys,124.74,1,Jose Jimenez,Pasadena Memorial,114.31,210.92,124.74,249.48,585.13,Single-ply,SBD,M,
Boys,124.74,2,Kris Whitley,Clute Brazoswood,113.94,170.1,138.35,183.7,492.15,Single-ply,SBD,M,
Boys,124.74,3,Alex Mateo,Pasadena Memorial,124.28,190.51,99.79,195.04,485.34,Single-ply,SBD,M,
Boys,139.71,1,Juan Pabon,Pasadena Memorial,128.59,215.46,140.61,226.8,582.87,Single-ply,SBD,M,
Boys,139.71,2,Dawson Scott,Clute Brazoswood,127.1,190.51,124.74,165.56,480.81,Single-ply,SBD,M,
Boys,139.71,DQ,Matthew Ramirez,Pasadena Memorial,131.54,,,,,Single-ply,SBD,M,
