Division,WeightClassKg,Place,Name,Team,BodyweightKg,Best3SquatKg,Best3BenchKg,Best3DeadliftKg,TotalKg,Equipment,Event,Sex,BirthDate
Boys,55.79,1,Eli Castillo,Fairfield,55.25,127.01,83.91,142.88,353.8,Single-ply,SBD,M,
Boys,55.79,2,Croix McBean,Fairfield,55.52,117.93,70.31,149.69,337.93,Single-ply,SBD,M,
Boys,55.79,3,Markus Ogaz,Corsicana,54.7,102.06,52.16,102.06,256.28,Single-ply,SBD,M,
Boys,55.79,4,Kaylen Robertson,Cayuga,54.34,70.31,52.16,92.99,215.46,Single-ply,SBD,M,
Boys,59.87,1,Curtis Gatewood,Corsicana,58.06,111.13,81.65,136.08,328.85,Single-ply,SBD,M,
Boys,59.87,2,Jake White,Fairfield,56.15,117.93,74.84,115.67,308.44,Single-ply,SBD,M,
Boys,59.87,3,Gus Kilman,Malakoff,58.15,113.4,65.77,111.13,290.3,Single-ply,SBD,M,
Boys,59.87,4,Jayden Rampey,Cayuga,59.87,102.06,52.16,124.74,278.96,Single-ply,SBD,M,
Boys,67.13,1,Jacob Espinoza,Fairfield,62.6,145.15,79.38,174.63,399.16,Single-ply,SBD,M,
Boys,67.13,2,Corey Phillips,Malakoff,65.77,154.22,88.45,154.22,396.89,Single-ply,SBD,M,
Boys,67.13,3,Braylyn Brandon,Corsicana,65.59,124.74,79.38,158.76,362.87,Single-ply,SBD,M,
Boys,67.13,4,Izick Smith,Kerens,66.22,142.88,61.23,158.76,362.87,Single-ply,SBD,M,
Boys,67.13,5,Jimmy Lewis,Palestine Westwood,62.23,127.01,74.84,151.95,353.8,Single-ply,SBD,M,
Boys,67.13,6,Jason Christian,Van,66.59,129.27,74.84,142.88,347,Single-ply,SBD,M,
Boys,67.13,7,Michael DeMoss,Kerens,66.22,74.84,61.23,111.13,247.21,Single-ply,SBD,M,
Boys,67.13,8,Josiah Williams,Cayuga,62.41,102.06,22.68,88.45,213.19,Single-ply,SBD,M,
Boys,74.84,1,Hayden Braswell,Fairfield,72.57,204.12,131.54,208.65,544.31,Single-ply,SBD,M,
Boys,74.84,2,Julian Jefferson,Fairfield,70.58,174.63,102.06,192.78,469.47,Single-ply,SBD,M,
Boys,74.84,3,Zander Crittenden,Kerens,69.31,170.1,124.74,170.1,464.93,Single-ply,SBD,M,
Boys,74.84,4,Blayne Chamness,Van,72.21,161.03,115.67,176.9,453.59,Single-ply,SBD,M,
Boys,74.84,5,Seth Barker,Cayuga,71.03,190.51,97.52,151.95,439.98,Single-ply,SBD,M,
Boys,74.84,6,Brayden May,Kerens,71.85,165.56,106.59,154.22,426.38,Single-ply,SBD,M,
Boys,74.84,7,Conner Edwards,Van,74.75,149.69,74.84,136.08,360.61,Single-ply,SBD,M,
Boys,74.84,8,Zack Davis,Malakoff,70.49,154.22,81.65,86.18,322.05,Single-ply,SBD,M,
Boys,74.84,9,Collin Glass,Fairfield,69.22,124.74,83.91,108.86,317.51,Single-ply,SBD,M,
Boys,82.1,1,Luke Martinez,Fairfield,78.38,185.97,95.25,190.51,471.74,Single-ply,SBD,M,
Boys,82.1,2,Hayden Aylor,Palestine Westwood,78.65,179.17,83.91,190.51,453.59,Single-ply,SBD,M,
Boys,82.1,3,Ke'Aunte Thomas,Corsicana,76.2,154.22,97.52,183.7,435.45,Single-ply,SBD,M,
Boys,82.1,4,Corey Caldwell,Cayuga,78.93,149.69,102.06,170.1,421.84,Single-ply,SBD,M,
Boys,82.1,5,Jaiden Trevino,Malakoff,81.78,149.69,111.13,161.03,421.84,Single-ply,SBD,M,
Boys,82.1,6,Israel Roman,Corsicana,76.11,145.15,79.38,158.76,383.29,Single-ply,SBD,M,
Boys,82.1,7,Kristian Roberts,Cayuga,76.11,142.88,81.65,149.69,374.21,Single-ply,SBD,M,
Boys,82.1,DQ,Brody Raymond,Malakoff,77.38,122.47,,120.2,,Single-ply,SBD,M,
Boys,89.81,1,K'Vionne Davis,Malakoff,88.9,249.48,129.27,204.12,582.87,Single-ply,SBD,M,
Boys,89.81,2,Jaden Crutcher,Palestine Westwood,86.09,204.12,127.01,195.04,526.17,Single-ply,SBD,M,
Boys,89.81,3,Gabe Villereal,Palestine Westwood,89.18,204.12,108.86,195.04,508.02,Single-ply,SBD,M,
Boys,89.81,4,Jesus Mendoza,Corsicana,84.55,167.83,120.2,183.7,471.74,Single-ply,SBD,M,
Boys,89.81,5,Evan Owen,Corsicana,85.73,170.1,102.06,158.76,430.91,Single-ply,SBD,M,
Boys,89.81,6,Jon Richardson,Van,85.73,167.83,90.72,156.49,415.04,Single-ply,SBD,M,
Boys,89.81,7,Kyle Morgan,Malakoff,83.51,127.01,72.57,131.54,331.12,Single-ply,SBD,M,
Boys,89.81,8,Antonio Rodriguez,Kerens,86.91,136.08,90.72,95.25,322.05,Single-ply,SBD,M,
Boys,89.81,9,Landan Hanery,Cayuga,86.18,102.06,70.31,127.01,299.37,Single-ply,SBD,M,
Boys,99.79,1,Jose Morales,Malakoff,99.56,185.97,117.93,172.37,476.27,Single-ply,SBD,M,
Boys,99.79,2,Mathew Gomez,Palestine Westwood,93.71,179.17,102.06,170.1,451.32,Single-ply,SBD,M,
Boys,99.79,3,Kolten Goolsby,Cayuga,95.25,185.97,95.25,170.1,451.32,Single-ply,SBD,M,
Boys,99.79,4,Ayden Coker,Palestine Westwood,89.99,158.76,115.67,170.1,444.52,Single-ply,SBD,M,
Boys,99.79,5,Sam Marsters,Fairfield,95.71,174.63,106.59,161.03,442.25,Single-ply,SBD,M,
Boys,99.79,6,Kain Jones,Malakoff,95.71,161.03,97.52,172.37,430.91,Single-ply,SBD,M,
Boys,99.79,7,Landon Justice,Van,96.16,140.61,86.18,147.42,374.21,Single-ply,SBD,M,
Boys,99.79,8,Matthew Smith,Kerens,92.08,97.52,52.16,111.13,260.82,Single-ply,SBD,M,
Boys,109.77,1,Julio Roque,Fairfield,106.59,204.12,106.59,204.12,514.83,Single-ply,SBD,M,
Boys,109.77,2,Christian Flores,Palestine Westwood,100.33,172.37,113.4,181.44,467.2,Single-ply,SBD,M,
Boys,109.77,3,Fernando Contreras,Malakoff,100.79,170.1,120.2,172.37,462.66,Single-ply,SBD,M,
Boys,109.77,4,Tyler Autrey,Palestine Westwood,101.33,176.9,97.52,149.69,424.11,Single-ply,SBD,M,
Boys,109.77,5,Brady Williams,Fairfield,105.23,154.22,95.25,149.69,399.16,Single-ply,SBD,M,
Boys,124.74,1,Spencer Shinn,Van,115.21,204.12,127.01,176.9,508.02,Single-ply,SBD,M,
Boys,124.74,2,Matthew Thomas,Corsicana,111.58,172.37,106.59,170.1,449.06,Single-ply,SBD,M,
Boys,124.74,3,Zanthony Jackson,Malakoff,118.75,176.9,95.25,158.76,430.91,Single-ply,SBD,M,
Boys,124.74,4,Kepler Multhaup,Van,111.13,158.76,83.91,156.49,399.16,Single-ply,SBD,M,
Boys,124.74,DQ,Jesse Rodriguez,Malakoff,110.9,185.97,,,,Single-ply,SBD,M,
Boys,124.74,DQ,Lance Robertson,Malakoff,116.35,235.87,,,,Single-ply,SBD,M,
Boys,139.71,1,Donavan Barrett,Palestine Westwood,128.19,260.82,140.61,204.12,605.55,Single-ply,SBD,M,
Boys,139.71,2,Jacob Ingram,Cayuga,135.44,170.1,99.79,167.83,437.72,Single-ply,SBD,M,
Boys,139.71,3,Trae Derrick,Van,127.91,172.37,95.25,138.35,405.97,Single-ply,SBD,M,
Boys,139.71,4,Mason Logan,Malakoff,127.01,156.49,97.52,142.88,396.89,Single-ply,SBD,M,
Boys,139.71+,1,Jay Thomas,Kerens,151.95,283.5,138.35,249.48,671.32,Single-ply,SBD,M,
Boys,139.71+,2,Bosque Monico,Fairfield,150.59,294.84,167.83,204.12,666.78,Single-ply,SBD,M,
Boys,139.71+,3,Logan Walker,Fairfield,168.74,272.16,154.22,192.78,619.15,Single-ply,SBD,M,
Boys,139.71+,4,Nathan Simons,Corsicana,143.34,215.46,145.15,174.63,535.24,Single-ply,SBD,M,
Boys,139.71+,5,Carl Harris,Corsicana,159.21,183.7,120.2,215.46,519.36,Single-ply,SBD,M,
